../rawdata/microjets/2019/20190617/stella_050_01/12.tif
../rawdata/microjets/2019/20190617/stella_050_01/19.tif
../rawdata/microjets/2019/20190617/stella_050_01/1.tif
../rawdata/microjets/2019/20190617/stella_050_01/26.tif
../rawdata/microjets/2019/20190617/stella_050_01/27.tif
../rawdata/microjets/2019/20190617/stella_050_01/28.tif
../rawdata/microjets/2019/20190617/stella_050_01/29.tif
../rawdata/microjets/2019/20190617/stella_050_01/33.tif
../rawdata/microjets/2019/20190617/stella_050_01/34.tif
../rawdata/microjets/2019/20190617/stella_050_01/35.tif
../rawdata/microjets/2019/20190617/stella_050_01/3.tif
../rawdata/microjets/2019/20190617/stella_050_01/48.tif
../rawdata/microjets/2019/20190617/stella_050_01/53.tif
../rawdata/microjets/2019/20190617/stella_050_01/54.tif
../rawdata/microjets/2019/20190617/stella_050_01/55.tif
../rawdata/microjets/2019/20190617/stella_050_01/57.tif
../rawdata/microjets/2019/20190617/stella_050_01/5.tif
../rawdata/microjets/2019/20190617/stella_050_01/60.tif
../rawdata/microjets/2019/20190617/stella_050_01/68.tif
../rawdata/microjets/2019/20190617/stella_050_01/69.tif
../rawdata/microjets/2019/20190617/stella_050_01/6.tif
../rawdata/microjets/2019/20190617/stella_050_01/77.tif
../rawdata/microjets/2019/20190617/stella_050_01/78.tif
../rawdata/microjets/2019/20190617/stella_050_01/7.tif
../rawdata/microjets/2019/20190617/stella_050_01/83.tif
