../rawdata/microjets/2019/20190501/Austin/oil18_buff03_39_C001H001S0001.tif
../rawdata/microjets/2019/20190501/Austin/oil18_buff03_39_C001H001S0001__1.tif
../rawdata/microjets/2019/20190501/Austin/oil18_buff03_39_C001H001S0001__2.tif
../rawdata/microjets/2019/20190501/Austin/oil18_buff03_39_C001H001S0001__3.tif
../rawdata/microjets/2019/20190501/Austin/oil18_buff03_39_C001H001S0001__4.tif
../rawdata/microjets/2019/20190501/Austin/oil19_buff02_43_C001H001S0001.tif
../rawdata/microjets/2019/20190501/Austin/oil19_buff02_43_C001H001S0001__1.tif
../rawdata/microjets/2019/20190501/Austin/oil19_buff02_43_C001H001S0001__2.tif
../rawdata/microjets/2019/20190501/Austin/oil19_buff02_43_C001H001S0001__3.tif
../rawdata/microjets/2019/20190501/Austin/oil19_buff02_43_C001H001S0001__4.tif
../rawdata/microjets/2019/20190501/Austin/oil20_buff01_47_C001H001S0001.tif
../rawdata/microjets/2019/20190501/Austin/oil20_buff01_47_C001H001S0001__1.tif
../rawdata/microjets/2019/20190501/Austin/oil20_buff01_47_C001H001S0001__2.tif
../rawdata/microjets/2019/20190501/Austin/oil20_buff01_47_C001H001S0001__3.tif
../rawdata/microjets/2019/20190501/Austin/oil20_buff01_47_C001H001S0001__4.tif
