2019/20190501/Austin/oil15_buff01_18_C001H001S0001.tif
2019/20190501/Austin/oil15_buff02p5_14_C001H001S0001.tif
2019/20190501/Austin/oil15_buff05_9_C001H001S0001.tif
2019/20190501/Austin/oil15_buff06_22_C001H001S0001.tif
2019/20190501/Austin/oil15_buff10_5_C001H001S0001.tif
2019/20190501/Austin/oil15_buff15_3_C001H001S0001.tif
2019/20190501/Austin/oil16_buff05_26_C001H001S0001.tif
2019/20190501/Austin/oil17_buff04_34_C001H001S0001.tif
2019/20190501/Austin/oil18_buff03_39_C001H001S0001.tif
2019/20190501/Austin/oil19_buff02_43_C001H001S0001.tif
2019/20190501/Austin/oil20_buff01_47_C001H001S0001.tif
2019/20190501/Austin/oil20_buff10_51_C001H001S0001.tif