nozzle,date,run,gas,liq,zoom,pixelSize,ifp,medium,jetstability,jetjitter,jetdeviation,bubbles,comments_x,droplet_translation,jet_speed,path,status,comments_y
stella05001,20190617,10,25.0,14.6,4.5,0.46,550,,,,,,,34.86,29.2,2019/20190617/stella_050_01/10.tif,,
stella05001,20190617,11,19.9,14.5,4.5,0.46,550,,,,,,,30.62,25.6,2019/20190617/stella_050_01/11.tif,,
stella05001,20190617,13,9.8,14.5,4.5,0.46,550,,,,,,,19.65,16.4,2019/20190617/stella_050_01/13.tif,ignore,Too much magnif. Strange outerprod. Great movie. 
stella05001,20190617,14,10.0,14.6,7.0,0.3,550,,,,,,,29.58,16.1,2019/20190617/stella_050_01/14.tif,,
stella05001,20190617,15,5.0,14.6,7.0,0.3,550,,,,,,,17.56,9.6,2019/20190617/stella_050_01/15.tif,,
stella05001,20190617,16,5.0,14.7,7.0,0.3,550,,,,,,,19.57,10.7,2019/20190617/stella_050_01/16.tif,ignore,nozzle tip not visible. Same conditions as run 15.tif but downstream so higher jet speed due to accel.
stella05001,20190617,17,3.0,14.7,7.0,0.3,550,,,,,,,10.53,5.7,2019/20190617/stella_050_01/17.tif,,
stella05001,20190617,18,2.0,20.9,7.0,0.3,550,,,,,,,5.54,3.0,2019/20190617/stella_050_01/18.tif,,
stella05001,20190617,19,5.0,21.3,7.0,0.3,550,,,,,,,14.51,7.9,2019/20190617/stella_050_01/19.tif,,
stella05001,20190617,1,10.0,9.8,4.5,0.46,550,,,,,,,23.56,19.7,2019/20190617/stella_050_01/1.tif,,
stella05001,20190617,20,10.0,21.4,6.0,0.35,550,,,,,,,21.5,13.7,2019/20190617/stella_050_01/20.tif,,
stella05001,20190617,21,15.0,21.5,6.0,0.35,550,,,,,,,27.5,17.5,2019/20190617/stella_050_01/21.tif,,
stella05001,20190617,22,20.0,21.1,6.0,0.35,550,,,,,,,31.64,20.1,2019/20190617/stella_050_01/22.tif,,
stella05001,20190617,23,25.0,21.3,5.5,0.38,550,,,,,,,34.6,23.9,2019/20190617/stella_050_01/23.tif,,
stella05001,20190617,24,30.0,21.2,5.0,0.41,550,,,,,,,34.77,25.9,2019/20190617/stella_050_01/24.tif,,
stella05001,20190617,25,35.0,20.8,4.0,0.52,550,,,,,,,30.62,28.9,2019/20190617/stella_050_01/25.tif,,
stella05001,20190617,2,15.1,9.8,4.5,0.46,550,,,,,,,29.72,24.9,2019/20190617/stella_050_01/2.tif,,
stella05001,20190617,30,40.0,25.2,5.0,0.41,550,,,,,,,37.83,28.2,2019/20190617/stella_050_01/30.tif,,
stella05001,20190617,31,45.0,25.3,5.0,0.41,550,,,,,,,39.86,29.7,2019/20190617/stella_050_01/31.tif,,
stella05001,20190617,32,35.0,25.5,5.0,0.41,550,,,,,,,35.67,26.6,2019/20190617/stella_050_01/32.tif,,
stella05001,20190617,36,15.0,24.8,5.5,0.38,550,,,,,,,23.58,16.3,2019/20190617/stella_050_01/36.tif,,
stella05001,20190617,37,10.0,24.9,5.5,0.38,550,,,,,,,18.57,12.8,2019/20190617/stella_050_01/37.tif,,
stella05001,20190617,38,5.0,25.2,6.5,0.32,550,,,,,,,12.56,7.3,2019/20190617/stella_050_01/38.tif,,
stella05001,20190617,39,3.0,24.8,7.0,0.3,550,,,,,,,9.5,5.2,2019/20190617/stella_050_01/39.tif,,
stella05001,20190617,3,20.0,9.7,4.5,0.46,550,,,,,,,35.66,29.8,2019/20190617/stella_050_01/3.tif,,
stella05001,20190617,40,2.0,25.0,7.0,0.3,550,,,,,,,6.51,3.6,2019/20190617/stella_050_01/40.tif,,
stella05001,20190617,41,0.9,24.8,7.0,0.3,550,,,,,,,4.5,2.5,2019/20190617/stella_050_01/41.tif,,
stella05001,20190617,42,2.0,30.7,7.0,0.3,550,,,,,,,4.51,2.5,2019/20190617/stella_050_01/42.tif,,
stella05001,20190617,43,5.0,31.3,6.0,0.35,550,,,,,,,10.54,6.7,2019/20190617/stella_050_01/43.tif,,
stella05001,20190617,44,10.0,31.1,5.0,0.41,550,,,,,,,15.5,11.6,2019/20190617/stella_050_01/44.tif,,
stella05001,20190617,45,15.1,31.5,5.0,0.41,550,,,,,,,18.73,14.0,2019/20190617/stella_050_01/45.tif,,
stella05001,20190617,46,20.0,31.4,5.0,0.41,550,,,,,,,23.7,17.7,2019/20190617/stella_050_01/46.tif,,
stella05001,20190617,47,24.9,31.8,4.0,0.52,550,,,,,,,23.72,22.4,2019/20190617/stella_050_01/47.tif,,
stella05001,20190617,49,35.1,31.5,4.0,0.52,550,,,,,,,27.11,25.6,2019/20190617/stella_050_01/49.tif,,
stella05001,20190617,4,29.8,9.8,4.5,0.46,550,,,,,,,44.72,37.4,2019/20190617/stella_050_01/4.tif,,
stella05001,20190617,50,40.0,31.6,4.0,0.52,550,,,,,,,29.23,27.6,2019/20190617/stella_050_01/50.tif,,
stella05001,20190617,51,45.0,31.6,4.0,0.52,550,,,,,,,30.62,28.9,2019/20190617/stella_050_01/51.tif,,
stella05001,20190617,52,50.0,31.7,4.0,0.52,550,,,,,,,32.39,30.6,2019/20190617/stella_050_01/52.tif,,
stella05001,20190617,56,35.0,39.6,4.0,0.52,550,,,,,,,24.77,23.4,2019/20190617/stella_050_01/56.tif,,
stella05001,20190617,58,25.0,39.2,4.5,0.46,550,,,,,,,22.66,19.0,2019/20190617/stella_050_01/58.tif,,
stella05001,20190617,59,20.0,39.4,4.0,0.52,550,,,,,,,18.61,17.6,2019/20190617/stella_050_01/59.tif,,
stella05001,20190617,5,34.8,9.6,4.5,0.46,550,,,,,,,49.56,41.5,2019/20190617/stella_050_01/5.tif,,
stella05001,20190617,61,15.0,38.9,4.5,0.46,550,,,,,,,16.53,13.8,2019/20190617/stella_050_01/61.tif,,
stella05001,20190617,62,10.0,39.1,5.0,0.41,550,,,,,,,13.61,10.1,2019/20190617/stella_050_01/62.tif,,
stella05001,20190617,63,10.0,39.5,6.0,0.35,550,,,,,,,15.52,9.9,2019/20190617/stella_050_01/63.tif,,
stella05001,20190617,64,4.9,39.5,6.0,0.35,550,,,,,,,10.6,6.7,2019/20190617/stella_050_01/64.tif,,
stella05001,20190617,65,5.0,39.5,7.0,0.3,550,,,,,,,62.31,34.0,2019/20190617/stella_050_01/65.tif,,
stella05001,20190617,66,2.0,39.4,7.0,0.3,550,,,,,,,5.5,3.0,2019/20190617/stella_050_01/66.tif,,
stella05001,20190617,67,45.0,10.8,7.0,0.3,550,,,,,,,1.48,0.8,2019/20190617/stella_050_01/67.tif,,
stella05001,20190617,68,45.0,10.6,7.0,0.3,550,,,,,,,83.51,45.6,2019/20190617/stella_050_01/68.tif,,
stella05001,20190617,69,50.0,10.7,7.0,0.3,550,,,,,,,82.54,45.0,2019/20190617/stella_050_01/69.tif,,
stella05001,20190617,70,50.0,15.2,7.0,0.3,550,,,,,,,65.6,35.8,2019/20190617/stella_050_01/70.tif,ignore,should be analyzeable. Great movie. Outerprod too dark.
stella05001,20190617,71,50.0,16.1,7.0,0.3,550,,,,,,,74.54,40.7,2019/20190617/stella_050_01/71.tif,ignore,should be analyzeable. Perhaps too much magnif. Or too far downstream so with acceleration. Nozzle tip not visible.
stella05001,20190617,72,45.0,15.9,7.0,0.3,550,,,,,,,49.49,27.0,2019/20190617/stella_050_01/72.tif,ignore,should be analyzeable. Perhaps too much magnif. Or too far downstream so with acceleration. Nozzle tip not visible.
stella05001,20190617,73,45.0,16.0,7.0,0.3,550,,,,,,,65.52,35.7,2019/20190617/stella_050_01/73.tif,ignore,should be analyzeable. Perhaps too much magnif. Or too far downstream so with acceleration. Nozzle tip not visible.
stella05001,20190617,74,50.0,5.7,7.0,0.3,550,,,,,,,96.63,52.7,2019/20190617/stella_050_01/74.tif,,
stella05001,20190617,75,50.0,5.8,7.0,0.3,550,,,,,,,119.58,65.2,2019/20190617/stella_050_01/75.tif,,
stella05001,20190617,76,45.0,5.9,7.0,0.3,550,,,,,,,15.49,8.4,2019/20190617/stella_050_01/76.tif,,
stella05001,20190617,77,45.0,5.9,7.0,0.3,550,,,,,,,101.52,55.4,2019/20190617/stella_050_01/77.tif,,
stella05001,20190617,78,40.0,5.8,7.0,0.3,550,,,,,,,95.54,52.1,2019/20190617/stella_050_01/78.tif,,
stella05001,20190617,79,40.0,5.9,7.0,0.3,550,,,,,,,56.82,31.0,2019/20190617/stella_050_01/79.tif,,
stella05001,20190617,7,40.1,14.6,4.5,0.46,550,,,,,,,43.55,36.4,2019/20190617/stella_050_01/7.tif,,
stella05001,20190617,80,34.9,5.9,7.0,0.3,550,,,,,,,993.37,541.8,2019/20190617/stella_050_01/80.tif,,
stella05001,20190617,81,35.0,5.9,7.0,0.3,550,,,,,,,94.55,51.6,2019/20190617/stella_050_01/81.tif,,
stella05001,20190617,82,29.9,5.8,7.0,0.3,550,,,,,,,89.5,48.8,2019/20190617/stella_050_01/82.tif,,
stella05001,20190617,83,30.0,5.9,7.0,0.3,550,,,,,,,90.56,49.4,2019/20190617/stella_050_01/83.tif,,
stella05001,20190617,8,34.9,14.6,4.5,0.46,550,,,,,,,36.94,30.9,2019/20190617/stella_050_01/8.tif,ignore,should be analyzeable. Great movie. Outerprod too dark.
stella05001,20190617,9,30.0,14.5,4.5,0.46,550,,,,,,,37.58,31.4,2019/20190617/stella_050_01/9.tif,,
