-rw-r--r-- 1 rkirian rkirian 1.9G Sep 11  2017 ../rawdata/microjets/2017/20170911/44_08_02_SC30I/046.tif
-rw-r--r-- 1 rkirian rkirian 1.9G Sep 11  2017 ../rawdata/microjets/20170911/44_08_02_SC30I/046.tif
-rw-r--r-- 1 rkirian rkirian 1.8G Sep  6  2017 ../rawdata/microjets/2017/20170906/44_07_03_SC30I/044.tif
-rw-r--r-- 1 rkirian rkirian 1.8G Sep  6  2017 ../rawdata/microjets/20170906/44_07_03_SC30I/044.tif
-rw-r--r-- 1 rkirian rkirian 1.8G Sep 11  2017 ../rawdata/microjets/2017/20170911/44_08_02_SC30I/043.tif
-rw-r--r-- 1 rkirian rkirian 1.8G Sep 11  2017 ../rawdata/microjets/20170911/44_08_02_SC30I/043.tif
-rw-r--r-- 1 rkirian rkirian 1.7G Sep  7  2017 ../rawdata/microjets/2017/20170907/44_08_01_SC30I/0028.tif
-rw-r--r-- 1 rkirian rkirian 1.7G Sep  7  2017 ../rawdata/microjets/20170907/44_08_01_SC30I/0028.tif
-rw-r--r-- 1 rkirian rkirian 1.6G Sep  6  2017 ../rawdata/microjets/2017/20170906/44_07_03_SC30I/035.tif
-rw-r--r-- 1 rkirian rkirian 1.6G Sep  6  2017 ../rawdata/microjets/20170906/44_07_03_SC30I/035.tif
-rw-r--r-- 1 rkirian rkirian 1.5G Aug 29  2017 ../rawdata/microjets/2017/20170829/44_05_01_SC30I/046.tif
-rw-r--r-- 1 rkirian rkirian 1.5G Aug 29  2017 ../rawdata/microjets/20170829/44_05_01_SC30I/046.tif
-rw-r--r-- 1 rkirian rkirian 1.4G Sep  7  2017 ../rawdata/microjets/2017/20170907/44_08_01_SC30I/0038.tif
-rw-r--r-- 1 rkirian rkirian 1.4G Sep  7  2017 ../rawdata/microjets/20170907/44_08_01_SC30I/0038.tif
-rw-r--r-- 1 rkirian rkirian 1.3G Sep  6  2017 ../rawdata/microjets/2017/20170906/44_07_03_SC30I/036.tif
-rw-r--r-- 1 rkirian rkirian 1.3G Sep  6  2017 ../rawdata/microjets/20170906/44_07_03_SC30I/036.tif
-rw-r--r-- 1 rkirian rkirian 1.2G Sep  6  2017 ../rawdata/microjets/2017/20170906/44_07_03_SC30I/043.tif
-rw-r--r-- 1 rkirian rkirian 1.2G Sep  6  2017 ../rawdata/microjets/20170906/44_07_03_SC30I/043.tif
-rw-r--r-- 1 rkirian rkirian 1.2G Sep 11  2017 ../rawdata/microjets/2017/20170911/44_08_02_SC30I/042.tif
-rw-r--r-- 1 rkirian rkirian 1.2G Sep 11  2017 ../rawdata/microjets/20170911/44_08_02_SC30I/042.tif
-rw-r--r-- 1 rkirian rkirian 1.2G Sep 10  2017 ../rawdata/microjets/2017/20170910/44_08_02_SC30I/009.tif
-rw-r--r-- 1 rkirian rkirian 1.2G Sep 10  2017 ../rawdata/microjets/20170910/44_08_02_SC30I/009.tif
-rw-r--r-- 1 rkirian rkirian 1.1G Sep  5  2017 ../rawdata/microjets/2017/20170905/44_07_02_SC30I/030.tif
-rw-r--r-- 1 rkirian rkirian 1.1G Sep  5  2017 ../rawdata/microjets/2017/20170905/44_07_02_SC30I/029.tif
-rw-r--r-- 1 rkirian rkirian 1.1G Sep  5  2017 ../rawdata/microjets/2017/20170905/44_07_02_SC30I/027.tif
-rw-r--r-- 1 rkirian rkirian 1.1G Sep  5  2017 ../rawdata/microjets/2017/20170905/44_07_02_SC30I/023.tif
-rw-r--r-- 1 rkirian rkirian 1.1G Sep  5  2017 ../rawdata/microjets/20170905/44_07_02_SC30I/030.tif
-rw-r--r-- 1 rkirian rkirian 1.1G Sep  5  2017 ../rawdata/microjets/20170905/44_07_02_SC30I/029.tif
-rw-r--r-- 1 rkirian rkirian 1.1G Sep  5  2017 ../rawdata/microjets/20170905/44_07_02_SC30I/027.tif
-rw-r--r-- 1 rkirian rkirian 1.1G Sep  5  2017 ../rawdata/microjets/20170905/44_07_02_SC30I/023.tif
-rw-r--r-- 1 rkirian rkirian 1.1G Sep 11  2017 ../rawdata/microjets/2017/20170911/44_08_02_SC30I/045.tif
-rw-r--r-- 1 rkirian rkirian 1.1G Sep 11  2017 ../rawdata/microjets/20170911/44_08_02_SC30I/045.tif
-rw-r--r-- 1 rkirian rkirian 1022M Sep  6  2017 ../rawdata/microjets/2017/20170906/44_08_01_SC30I/0010.tif
-rw-r--r-- 1 rkirian rkirian 1022M Sep  6  2017 ../rawdata/microjets/20170906/44_08_01_SC30I/0010.tif
-rw-r--r-- 1 rkirian rkirian 1007M Sep  7  2017 ../rawdata/microjets/2017/20170907/44_08_01_SC30I/0037.tif
-rw-r--r-- 1 rkirian rkirian 1007M Sep  7  2017 ../rawdata/microjets/20170907/44_08_01_SC30I/0037.tif
-rw-r--r-- 1 rkirian rkirian 1005M Sep  7  2017 ../rawdata/microjets/2017/20170907/44_08_01_SC30I/0027.tif
-rw-r--r-- 1 rkirian rkirian 1005M Sep  7  2017 ../rawdata/microjets/20170907/44_08_01_SC30I/0027.tif
-rw-r--r-- 1 rkirian rkirian 999M Sep  6  2017 ../rawdata/microjets/2017/20170906/44_07_03_SC30I/034.tif
-rw-r--r-- 1 rkirian rkirian 999M Sep  6  2017 ../rawdata/microjets/20170906/44_07_03_SC30I/034.tif
-rw-r--r-- 1 rkirian rkirian 975M Aug 29  2017 ../rawdata/microjets/2017/20170829/44_05_01_SC30I/038.tif
-rw-r--r-- 1 rkirian rkirian 975M Aug 29  2017 ../rawdata/microjets/20170829/44_05_01_SC30I/038.tif
-rw-r--r-- 1 rkirian rkirian 974M Sep  7  2017 ../rawdata/microjets/2017/20170907/44_08_01_SC30I/0029.tif
-rw-r--r-- 1 rkirian rkirian 974M Sep  7  2017 ../rawdata/microjets/20170907/44_08_01_SC30I/0029.tif
-rw-r--r-- 1 rkirian rkirian 953M Sep  5  2017 ../rawdata/microjets/2017/20170905/44_07_02_SC30I/020.tif
-rw-r--r-- 1 rkirian rkirian 953M Sep  5  2017 ../rawdata/microjets/20170905/44_07_02_SC30I/020.tif
-rw-r--r-- 1 rkirian rkirian 950M Sep  6  2017 ../rawdata/microjets/2017/20170906/44_08_01_SC30I/0019.tif
-rw-r--r-- 1 rkirian rkirian 950M Sep  6  2017 ../rawdata/microjets/20170906/44_08_01_SC30I/0019.tif
-rw-r--r-- 1 rkirian rkirian 942M Sep  5  2017 ../rawdata/microjets/2017/20170905/44_07_02_SC30I/028.tif
-rw-r--r-- 1 rkirian rkirian 942M Sep  5  2017 ../rawdata/microjets/20170905/44_07_02_SC30I/028.tif
-rw-r--r-- 1 rkirian rkirian 924M Sep  5  2017 ../rawdata/microjets/2017/20170905/44_07_02_SC30I/031.tif
-rw-r--r-- 1 rkirian rkirian 924M Sep  5  2017 ../rawdata/microjets/2017/20170905/44_07_02_SC30I/025.tif
-rw-r--r-- 1 rkirian rkirian 924M Sep  5  2017 ../rawdata/microjets/20170905/44_07_02_SC30I/031.tif
-rw-r--r-- 1 rkirian rkirian 924M Sep  5  2017 ../rawdata/microjets/20170905/44_07_02_SC30I/025.tif
-rw-r--r-- 1 rkirian rkirian 921M Sep  5  2017 ../rawdata/microjets/2017/20170905/44_07_02_SC30I/021.tif
-rw-r--r-- 1 rkirian rkirian 921M Sep  5  2017 ../rawdata/microjets/20170905/44_07_02_SC30I/021.tif
-rw-r--r-- 1 rkirian rkirian 873M Sep 11  2017 ../rawdata/microjets/2017/20170911/44_08_02_SC30I/018.tif
-rw-r--r-- 1 rkirian rkirian 873M Sep 11  2017 ../rawdata/microjets/20170911/44_08_02_SC30I/018.tif
-rw-r--r-- 1 rkirian rkirian 861M Sep  7  2017 ../rawdata/microjets/2017/20170907/44_08_01_SC30I/045.tif
-rw-r--r-- 1 rkirian rkirian 861M Sep  7  2017 ../rawdata/microjets/20170907/44_08_01_SC30I/045.tif
-rw-r--r-- 1 rkirian rkirian 855M Sep  5  2017 ../rawdata/microjets/2017/20170905/44_07_02_SC30I/022.tif
-rw-r--r-- 1 rkirian rkirian 855M Sep  5  2017 ../rawdata/microjets/20170905/44_07_02_SC30I/022.tif
-rw-r--r-- 1 rkirian rkirian 846M Sep 11  2017 ../rawdata/microjets/2017/20170911/44_08_02_SC30I/048.tif
-rw-r--r-- 1 rkirian rkirian 846M Sep 11  2017 ../rawdata/microjets/20170911/44_08_02_SC30I/048.tif
-rw-rw-r-- 1 rkirian rkirian 829M Oct 10  2018 ../rawdata/microjets/2017/20171228/44_10_03_SC30I/40.tif
-rw-r--r-- 1 rkirian rkirian 829M Dec 28  2017 ../rawdata/microjets/20171228/44_10_03_SC30I/40.tif
-rw-rw-r-- 1 rkirian rkirian 828M Oct 10  2018 ../rawdata/microjets/2017/20171228/44_10_03_SC30I/44.tif
-rw-r--r-- 1 rkirian rkirian 828M Sep 11  2017 ../rawdata/microjets/2017/20170911/44_08_02_SC30I/047.tif
-rw-r--r-- 1 rkirian rkirian 828M Sep 11  2017 ../rawdata/microjets/20170911/44_08_02_SC30I/047.tif
-rw-r--r-- 1 rkirian rkirian 828M Dec 28  2017 ../rawdata/microjets/20171228/44_10_03_SC30I/44.tif
-rw-r--r-- 1 rkirian rkirian 813M Sep  6  2017 ../rawdata/microjets/2017/20170906/44_07_03_SC30I/037.tif
-rw-r--r-- 1 rkirian rkirian 813M Sep  6  2017 ../rawdata/microjets/20170906/44_07_03_SC30I/037.tif
-rw-r--r-- 1 rkirian rkirian 805M Sep  5  2017 ../rawdata/microjets/2017/20170905/44_07_02_SC30I/026.tif
-rw-r--r-- 1 rkirian rkirian 805M Sep  5  2017 ../rawdata/microjets/20170905/44_07_02_SC30I/026.tif
-rw-r--r-- 1 rkirian rkirian 774M Sep  6  2017 ../rawdata/microjets/2017/20170905/44_07_03_SC30I/009.tif
-rw-r--r-- 1 rkirian rkirian 774M Sep  6  2017 ../rawdata/microjets/20170905/44_07_03_SC30I/009.tif
-rw-r--r-- 1 rkirian rkirian 774M Sep  5  2017 ../rawdata/microjets/2017/20170905/44_07_02_SC30I/032.tif
-rw-r--r-- 1 rkirian rkirian 774M Sep  5  2017 ../rawdata/microjets/20170905/44_07_02_SC30I/032.tif
-rw-r--r-- 1 rkirian rkirian 772M Sep  5  2017 ../rawdata/microjets/2017/20170905/44_07_02_SC30I/024.tif
-rw-r--r-- 1 rkirian rkirian 772M Sep  5  2017 ../rawdata/microjets/20170905/44_07_02_SC30I/024.tif
-rw-r--r-- 1 rkirian rkirian 756M Sep  6  2017 ../rawdata/microjets/2017/20170906/44_07_03_SC30I/017.tif
-rw-r--r-- 1 rkirian rkirian 756M Sep  6  2017 ../rawdata/microjets/20170906/44_07_03_SC30I/017.tif
-rw-rw-r-- 1 rkirian rkirian 754M Oct 10  2018 ../rawdata/microjets/2017/20171228/44_10_03_SC30I/51.tif
-rw-r--r-- 1 rkirian rkirian 754M Dec 28  2017 ../rawdata/microjets/20171228/44_10_03_SC30I/51.tif
-rw-rw-r-- 1 rkirian rkirian 753M Oct 10  2018 ../rawdata/microjets/2017/20171228/44_10_03_SC30I/65.tif
-rw-rw-r-- 1 rkirian rkirian 753M Oct 10  2018 ../rawdata/microjets/2017/20171228/44_10_03_SC30I/64.tif
-rw-rw-r-- 1 rkirian rkirian 753M Oct 10  2018 ../rawdata/microjets/2017/20171228/44_10_03_SC30I/63.tif
-rw-rw-r-- 1 rkirian rkirian 753M Oct 10  2018 ../rawdata/microjets/2017/20171228/44_10_03_SC30I/62.tif
-rw-rw-r-- 1 rkirian rkirian 753M Oct 10  2018 ../rawdata/microjets/2017/20171228/44_10_03_SC30I/61.tif
-rw-rw-r-- 1 rkirian rkirian 753M Oct 10  2018 ../rawdata/microjets/2017/20171228/44_10_03_SC30I/60.tif
-rw-rw-r-- 1 rkirian rkirian 753M Oct 10  2018 ../rawdata/microjets/2017/20171228/44_10_03_SC30I/59.tif
-rw-rw-r-- 1 rkirian rkirian 753M Oct 10  2018 ../rawdata/microjets/2017/20171228/44_10_03_SC30I/58.tif
-rw-rw-r-- 1 rkirian rkirian 753M Oct 10  2018 ../rawdata/microjets/2017/20171228/44_10_03_SC30I/57.tif
-rw-rw-r-- 1 rkirian rkirian 753M Oct 10  2018 ../rawdata/microjets/2017/20171228/44_10_03_SC30I/56.tif
-rw-rw-r-- 1 rkirian rkirian 753M Oct 10  2018 ../rawdata/microjets/2017/20171228/44_10_03_SC30I/55.tif
-rw-rw-r-- 1 rkirian rkirian 753M Oct 10  2018 ../rawdata/microjets/2017/20171228/44_10_03_SC30I/54.tif
-rw-rw-r-- 1 rkirian rkirian 753M Oct 10  2018 ../rawdata/microjets/2017/20171228/44_10_03_SC30I/53.tif
-rw-rw-r-- 1 rkirian rkirian 753M Oct 10  2018 ../rawdata/microjets/2017/20171228/44_10_03_SC30I/52.tif
-rw-rw-r-- 1 rkirian rkirian 753M Oct 10  2018 ../rawdata/microjets/2017/20171228/44_10_03_SC30I/49.tif
-rw-rw-r-- 1 rkirian rkirian 753M Oct 10  2018 ../rawdata/microjets/2017/20171228/44_10_03_SC30I/47.tif
-rw-rw-r-- 1 rkirian rkirian 753M Oct 10  2018 ../rawdata/microjets/2017/20171228/44_10_03_SC30I/46.tif
-rw-rw-r-- 1 rkirian rkirian 753M Oct 10  2018 ../rawdata/microjets/2017/20171228/44_10_03_SC30I/45.tif
-rw-rw-r-- 1 rkirian rkirian 753M Oct 10  2018 ../rawdata/microjets/2017/20171228/44_10_03_SC30I/42.tif
-rw-rw-r-- 1 rkirian rkirian 753M Oct 10  2018 ../rawdata/microjets/2017/20171228/44_10_03_SC30I/41.tif
-rw-r--r-- 1 rkirian rkirian 753M Dec 28  2017 ../rawdata/microjets/20171228/44_10_03_SC30I/65.tif
-rw-r--r-- 1 rkirian rkirian 753M Dec 28  2017 ../rawdata/microjets/20171228/44_10_03_SC30I/64.tif
-rw-r--r-- 1 rkirian rkirian 753M Dec 28  2017 ../rawdata/microjets/20171228/44_10_03_SC30I/63.tif
-rw-r--r-- 1 rkirian rkirian 753M Dec 28  2017 ../rawdata/microjets/20171228/44_10_03_SC30I/62.tif
-rw-r--r-- 1 rkirian rkirian 753M Dec 28  2017 ../rawdata/microjets/20171228/44_10_03_SC30I/61.tif
-rw-r--r-- 1 rkirian rkirian 753M Dec 28  2017 ../rawdata/microjets/20171228/44_10_03_SC30I/60.tif
-rw-r--r-- 1 rkirian rkirian 753M Dec 28  2017 ../rawdata/microjets/20171228/44_10_03_SC30I/59.tif
-rw-r--r-- 1 rkirian rkirian 753M Dec 28  2017 ../rawdata/microjets/20171228/44_10_03_SC30I/58.tif
-rw-r--r-- 1 rkirian rkirian 753M Dec 28  2017 ../rawdata/microjets/20171228/44_10_03_SC30I/57.tif
-rw-r--r-- 1 rkirian rkirian 753M Dec 28  2017 ../rawdata/microjets/20171228/44_10_03_SC30I/56.tif
-rw-r--r-- 1 rkirian rkirian 753M Dec 28  2017 ../rawdata/microjets/20171228/44_10_03_SC30I/55.tif
-rw-r--r-- 1 rkirian rkirian 753M Dec 28  2017 ../rawdata/microjets/20171228/44_10_03_SC30I/54.tif
-rw-r--r-- 1 rkirian rkirian 753M Dec 28  2017 ../rawdata/microjets/20171228/44_10_03_SC30I/53.tif
-rw-r--r-- 1 rkirian rkirian 753M Dec 28  2017 ../rawdata/microjets/20171228/44_10_03_SC30I/52.tif
-rw-r--r-- 1 rkirian rkirian 753M Dec 28  2017 ../rawdata/microjets/20171228/44_10_03_SC30I/49.tif
-rw-r--r-- 1 rkirian rkirian 753M Dec 28  2017 ../rawdata/microjets/20171228/44_10_03_SC30I/47.tif
-rw-r--r-- 1 rkirian rkirian 753M Dec 28  2017 ../rawdata/microjets/20171228/44_10_03_SC30I/46.tif
-rw-r--r-- 1 rkirian rkirian 753M Dec 28  2017 ../rawdata/microjets/20171228/44_10_03_SC30I/45.tif
-rw-r--r-- 1 rkirian rkirian 753M Dec 28  2017 ../rawdata/microjets/20171228/44_10_03_SC30I/42.tif
-rw-r--r-- 1 rkirian rkirian 753M Dec 28  2017 ../rawdata/microjets/20171228/44_10_03_SC30I/41.tif
-rw-r--r-- 1 rkirian rkirian 750M Sep  5  2017 ../rawdata/microjets/2017/20170905/44_07_03_SC30I/002.tif
-rw-r--r-- 1 rkirian rkirian 750M Sep  5  2017 ../rawdata/microjets/20170905/44_07_03_SC30I/002.tif
-rw-r--r-- 1 rkirian rkirian 741M Sep  6  2017 ../rawdata/microjets/2017/20170906/44_08_01_SC30I/0026.tif
-rw-r--r-- 1 rkirian rkirian 741M Sep  6  2017 ../rawdata/microjets/20170906/44_08_01_SC30I/0026.tif
-rw-r--r-- 1 rkirian rkirian 723M Sep  7  2017 ../rawdata/microjets/2017/20170907/44_08_01_SC30I/047.tif
-rw-r--r-- 1 rkirian rkirian 723M Sep  7  2017 ../rawdata/microjets/20170907/44_08_01_SC30I/047.tif
-rw-r--r-- 1 rkirian rkirian 708M Sep  5  2017 ../rawdata/microjets/2017/20170905/44_07_02_SC30I/018.tif
-rw-r--r-- 1 rkirian rkirian 708M Sep  5  2017 ../rawdata/microjets/20170905/44_07_02_SC30I/018.tif
-rw-r--r-- 1 rkirian rkirian 694M Sep  6  2017 ../rawdata/microjets/2017/20170906/44_07_03_SC30I/026.tif
-rw-r--r-- 1 rkirian rkirian 694M Sep  6  2017 ../rawdata/microjets/20170906/44_07_03_SC30I/026.tif
-rw-rw-r-- 1 rkirian rkirian 678M Oct 10  2018 ../rawdata/microjets/2017/20171228/44_10_03_SC30I/43.tif
-rw-rw-r-- 1 rkirian rkirian 678M Oct 10  2018 ../rawdata/microjets/2017/20171228/44_10_03_SC30I/39.tif
-rw-rw-r-- 1 rkirian rkirian 678M Oct 10  2018 ../rawdata/microjets/2017/20171228/44_10_03_SC30I/34.tif
-rw-r--r-- 1 rkirian rkirian 678M Jan 17  2018 ../rawdata/microjets/20180117/44_08_02_SC30I/87.tif
-rw-r--r-- 1 rkirian rkirian 678M Dec 28  2017 ../rawdata/microjets/20171228/44_10_03_SC30I/43.tif
-rw-r--r-- 1 rkirian rkirian 678M Dec 28  2017 ../rawdata/microjets/20171228/44_10_03_SC30I/39.tif
-rw-r--r-- 1 rkirian rkirian 678M Dec 28  2017 ../rawdata/microjets/20171228/44_10_03_SC30I/34.tif
-r--r--r-- 1 rkirian rkirian 678M Jan 17  2018 ../rawdata/microjets/2018/20180117/44_08_02_SC30I/87.tif
-rw-r--r-- 1 rkirian rkirian 663M Sep  5  2017 ../rawdata/microjets/2017/20170905/44_07_03_SC30I/003.tif
-rw-r--r-- 1 rkirian rkirian 663M Sep  5  2017 ../rawdata/microjets/2017/20170905/44_07_02_SC30I/011.tif
-rw-r--r-- 1 rkirian rkirian 663M Sep  5  2017 ../rawdata/microjets/20170905/44_07_03_SC30I/003.tif
-rw-r--r-- 1 rkirian rkirian 663M Sep  5  2017 ../rawdata/microjets/20170905/44_07_02_SC30I/011.tif
-rw-rw-r-- 1 rkirian rkirian 652M Oct 10  2018 ../rawdata/microjets/2017/20171228/44_10_03_SC30I/50.tif
-rw-r--r-- 1 rkirian rkirian 652M Dec 28  2017 ../rawdata/microjets/20171228/44_10_03_SC30I/50.tif
-rw-r--r-- 1 rkirian rkirian 648M Sep 11  2017 ../rawdata/microjets/2017/20170911/44_08_02_SC30I/035.tif
-rw-r--r-- 1 rkirian rkirian 648M Sep 11  2017 ../rawdata/microjets/20170911/44_08_02_SC30I/035.tif
-rw-r--r-- 1 rkirian rkirian 643M Sep  7  2017 ../rawdata/microjets/2017/20170907/44_08_01_SC30I/046.tif
-rw-r--r-- 1 rkirian rkirian 643M Sep  7  2017 ../rawdata/microjets/20170907/44_08_01_SC30I/046.tif
-rw-r--r-- 1 rkirian rkirian 642M Sep  5  2017 ../rawdata/microjets/2017/20170905/44_07_02_SC30I/017.tif
-rw-r--r-- 1 rkirian rkirian 642M Sep  5  2017 ../rawdata/microjets/20170905/44_07_02_SC30I/017.tif
-rw-r--r-- 1 rkirian rkirian 630M Sep  7  2017 ../rawdata/microjets/2017/20170907/44_08_01_SC30I/048.tif
-rw-r--r-- 1 rkirian rkirian 630M Sep  7  2017 ../rawdata/microjets/20170907/44_08_01_SC30I/048.tif
-rw-r--r-- 1 rkirian rkirian 628M Sep  6  2017 ../rawdata/microjets/2017/20170906/44_08_01_SC30I/001.tif
-rw-r--r-- 1 rkirian rkirian 628M Sep  6  2017 ../rawdata/microjets/20170906/44_08_01_SC30I/001.tif
-rw-r--r-- 1 rkirian rkirian 618M Aug 28  2017 ../rawdata/microjets/2017/20170828/44_05_01_SC30I/004.tif
-rw-r--r-- 1 rkirian rkirian 618M Aug 28  2017 ../rawdata/microjets/20170828/44_05_01_SC30I/004.tif
-rw-rw-r-- 1 rkirian rkirian 615M Oct 10  2018 ../rawdata/microjets/2017/20171228/44_10_03_SC30I/33.tif
-rw-r--r-- 1 rkirian rkirian 615M Sep 11  2017 ../rawdata/microjets/2017/20170911/44_08_02_SC30I/027.tif
-rw-r--r-- 1 rkirian rkirian 615M Sep 11  2017 ../rawdata/microjets/20170911/44_08_02_SC30I/027.tif
-rw-r--r-- 1 rkirian rkirian 615M Dec 28  2017 ../rawdata/microjets/20171228/44_10_03_SC30I/33.tif
-rw-rw-r-- 1 rkirian rkirian 609M Oct 10  2018 ../rawdata/microjets/2017/20171211/44_08_01_SC30I/57.tif
-rw-r--r-- 1 rkirian rkirian 609M Sep  5  2017 ../rawdata/microjets/2017/20170905/44_07_02_SC30I/008.tif
-rw-r--r-- 1 rkirian rkirian 609M Sep  5  2017 ../rawdata/microjets/20170905/44_07_02_SC30I/008.tif
-rw-r--r-- 1 rkirian rkirian 609M Dec 11  2017 ../rawdata/microjets/20171211/44_08_01_SC30I/57.tif
-rw-rw-r-- 1 rkirian rkirian 604M Oct 10  2018 ../rawdata/microjets/2017/20171211/44_08_01_SC30I/73.tif
-rw-r--r-- 1 rkirian rkirian 604M Sep  5  2017 ../rawdata/microjets/2017/20170905/44_07_02_SC30I/015.tif
-rw-r--r-- 1 rkirian rkirian 604M Sep  5  2017 ../rawdata/microjets/20170905/44_07_02_SC30I/015.tif
-rw-r--r-- 1 rkirian rkirian 604M Dec 11  2017 ../rawdata/microjets/20171211/44_08_01_SC30I/73.tif
-rw-rw-r-- 1 rkirian rkirian 603M Oct 10  2018 ../rawdata/microjets/2017/20171228/44_10_03_SC30I/48.tif
-rw-rw-r-- 1 rkirian rkirian 603M Oct 10  2018 ../rawdata/microjets/2017/20171228/44_10_03_SC30I/38.tif
-rw-rw-r-- 1 rkirian rkirian 603M Oct 10  2018 ../rawdata/microjets/2017/20171228/44_10_03_SC30I/37.tif
-rw-rw-r-- 1 rkirian rkirian 603M Oct 10  2018 ../rawdata/microjets/2017/20171211/44_08_01_SC30I/72.tif
-rw-rw-r-- 1 rkirian rkirian 603M Oct 10  2018 ../rawdata/microjets/2017/20171211/44_08_01_SC30I/71.tif
-rw-rw-r-- 1 rkirian rkirian 603M Oct 10  2018 ../rawdata/microjets/2017/20171211/44_08_01_SC30I/70.tif
-rw-rw-r-- 1 rkirian rkirian 603M Oct 10  2018 ../rawdata/microjets/2017/20171211/44_08_01_SC30I/68.tif
-rw-rw-r-- 1 rkirian rkirian 603M Oct 10  2018 ../rawdata/microjets/2017/20171211/44_08_01_SC30I/67.tif
-rw-rw-r-- 1 rkirian rkirian 603M Oct 10  2018 ../rawdata/microjets/2017/20171211/44_08_01_SC30I/65.tif
-rw-rw-r-- 1 rkirian rkirian 603M Oct 10  2018 ../rawdata/microjets/2017/20171211/44_08_01_SC30I/63.tif
-rw-rw-r-- 1 rkirian rkirian 603M Oct 10  2018 ../rawdata/microjets/2017/20171211/44_08_01_SC30I/61.tif
-rw-rw-r-- 1 rkirian rkirian 603M Oct 10  2018 ../rawdata/microjets/2017/20171211/44_08_01_SC30I/60.tif
-rw-rw-r-- 1 rkirian rkirian 603M Oct 10  2018 ../rawdata/microjets/2017/20171211/44_08_01_SC30I/59.tif
-rw-rw-r-- 1 rkirian rkirian 603M Oct 10  2018 ../rawdata/microjets/2017/20171211/44_08_01_SC30I/58.tif
-rw-r--r-- 1 rkirian rkirian 603M Jan 22  2018 ../rawdata/microjets/20180122/44_08_01_SC30I/82.tif
-rw-r--r-- 1 rkirian rkirian 603M Jan 22  2018 ../rawdata/microjets/20180122/44_08_01_SC30I/81.tif
-rw-r--r-- 1 rkirian rkirian 603M Jan 22  2018 ../rawdata/microjets/20180122/44_08_01_SC30I/80.tif
-rw-r--r-- 1 rkirian rkirian 603M Jan 22  2018 ../rawdata/microjets/20180122/44_08_01_SC30I/79.tif
-rw-r--r-- 1 rkirian rkirian 603M Jan 17  2018 ../rawdata/microjets/20180117/44_08_02_SC30I/86.tif
-rw-r--r-- 1 rkirian rkirian 603M Dec 28  2017 ../rawdata/microjets/20171228/44_10_03_SC30I/48.tif
-rw-r--r-- 1 rkirian rkirian 603M Dec 28  2017 ../rawdata/microjets/20171228/44_10_03_SC30I/38.tif
-rw-r--r-- 1 rkirian rkirian 603M Dec 28  2017 ../rawdata/microjets/20171228/44_10_03_SC30I/37.tif
-rw-r--r-- 1 rkirian rkirian 603M Dec 11  2017 ../rawdata/microjets/20171211/44_08_01_SC30I/72.tif
-rw-r--r-- 1 rkirian rkirian 603M Dec 11  2017 ../rawdata/microjets/20171211/44_08_01_SC30I/71.tif
-rw-r--r-- 1 rkirian rkirian 603M Dec 11  2017 ../rawdata/microjets/20171211/44_08_01_SC30I/70.tif
-rw-r--r-- 1 rkirian rkirian 603M Dec 11  2017 ../rawdata/microjets/20171211/44_08_01_SC30I/68.tif
-rw-r--r-- 1 rkirian rkirian 603M Dec 11  2017 ../rawdata/microjets/20171211/44_08_01_SC30I/67.tif
-rw-r--r-- 1 rkirian rkirian 603M Dec 11  2017 ../rawdata/microjets/20171211/44_08_01_SC30I/65.tif
-rw-r--r-- 1 rkirian rkirian 603M Dec 11  2017 ../rawdata/microjets/20171211/44_08_01_SC30I/63.tif
-rw-r--r-- 1 rkirian rkirian 603M Dec 11  2017 ../rawdata/microjets/20171211/44_08_01_SC30I/61.tif
-rw-r--r-- 1 rkirian rkirian 603M Dec 11  2017 ../rawdata/microjets/20171211/44_08_01_SC30I/60.tif
-rw-r--r-- 1 rkirian rkirian 603M Dec 11  2017 ../rawdata/microjets/20171211/44_08_01_SC30I/59.tif
-rw-r--r-- 1 rkirian rkirian 603M Dec 11  2017 ../rawdata/microjets/20171211/44_08_01_SC30I/58.tif
-r--r--r-- 1 rkirian rkirian 603M Jan 22  2018 ../rawdata/microjets/2018/20180122/44_08_01_SC30I/82.tif
-r--r--r-- 1 rkirian rkirian 603M Jan 22  2018 ../rawdata/microjets/2018/20180122/44_08_01_SC30I/81.tif
-r--r--r-- 1 rkirian rkirian 603M Jan 22  2018 ../rawdata/microjets/2018/20180122/44_08_01_SC30I/80.tif
-r--r--r-- 1 rkirian rkirian 603M Jan 22  2018 ../rawdata/microjets/2018/20180122/44_08_01_SC30I/79.tif
-r--r--r-- 1 rkirian rkirian 603M Jan 17  2018 ../rawdata/microjets/2018/20180117/44_08_02_SC30I/86.tif
-rw-r--r-- 1 rkirian rkirian 600M Sep  6  2017 ../rawdata/microjets/2017/20170906/44_08_01_SC30I/0011.tif
-rw-r--r-- 1 rkirian rkirian 600M Sep  6  2017 ../rawdata/microjets/20170906/44_08_01_SC30I/0011.tif
-rwxrwx--- 1 rkirian rkirian 594M Jul 27  2017 ../rawdata/microjets/2017/20170727/44_05_03_SC30I/003.tif
-rw-r--r-- 1 rkirian rkirian 594M Jul 27  2017 ../rawdata/microjets/2017/20170727/44_05_03_SC30I/003_imp.tif
-rw-r--r-- 1 rkirian rkirian 594M Jul 27  2017 ../rawdata/microjets/20170727/44_05_03_SC30I/003_imp.tif
-rw-r--r-- 1 rkirian rkirian 571M Aug 28  2017 ../rawdata/microjets/2017/20170828/44_05_01_SC30I/001.tif
-rw-r--r-- 1 rkirian rkirian 571M Aug 28  2017 ../rawdata/microjets/20170828/44_05_01_SC30I/001.tif
-rw-r--r-- 1 rkirian rkirian 570M Aug 28  2017 ../rawdata/microjets/2017/20170828/44_05_01_SC30I/007.tif
-rw-r--r-- 1 rkirian rkirian 570M Aug 28  2017 ../rawdata/microjets/20170828/44_05_01_SC30I/007.tif
-rw-r--r-- 1 rkirian rkirian 559M Sep  7  2017 ../rawdata/microjets/2017/20170907/44_08_01_SC30I/044.tif
-rw-r--r-- 1 rkirian rkirian 559M Sep  7  2017 ../rawdata/microjets/20170907/44_08_01_SC30I/044.tif
-rw-r--r-- 1 rkirian rkirian 555M Sep  5  2017 ../rawdata/microjets/2017/20170905/44_07_03_SC30I/004.tif
-rw-r--r-- 1 rkirian rkirian 555M Sep  5  2017 ../rawdata/microjets/20170905/44_07_03_SC30I/004.tif
-rw-r--r-- 1 rkirian rkirian 534M Aug 28  2017 ../rawdata/microjets/2017/20170828/44_05_01_SC30I/008.tif
-rw-r--r-- 1 rkirian rkirian 534M Aug 28  2017 ../rawdata/microjets/20170828/44_05_01_SC30I/008.tif
-rw-r--r-- 1 rkirian rkirian 532M Sep  5  2017 ../rawdata/microjets/2017/20170905/44_07_02_SC30I/019.tif
-rw-r--r-- 1 rkirian rkirian 532M Sep  5  2017 ../rawdata/microjets/20170905/44_07_02_SC30I/019.tif
-rw-rw-r-- 1 rkirian rkirian 528M Oct 10  2018 ../rawdata/microjets/2017/20171228/44_10_03_SC30I/36.tif
-rw-rw-r-- 1 rkirian rkirian 528M Oct 10  2018 ../rawdata/microjets/2017/20171228/44_10_03_SC30I/35.tif
-rw-rw-r-- 1 rkirian rkirian 528M Oct 10  2018 ../rawdata/microjets/2017/20171211/44_08_01_SC30I/56.tif
-rw-rw-r-- 1 rkirian rkirian 528M Oct 10  2018 ../rawdata/microjets/2017/20171211/44_08_01_SC30I/55.tif
-rw-rw-r-- 1 rkirian rkirian 528M Oct 10  2018 ../rawdata/microjets/2017/20171211/44_08_01_SC30I/54.tif
-rw-r--r-- 1 rkirian rkirian 528M Jan 22  2018 ../rawdata/microjets/20180122/44_08_01_SC30I/78.tif
-rw-r--r-- 1 rkirian rkirian 528M Jan 22  2018 ../rawdata/microjets/20180122/44_08_01_SC30I/77.tif
-rw-r--r-- 1 rkirian rkirian 528M Jan 17  2018 ../rawdata/microjets/20180117/44_08_02_SC30I/85.tif
-rw-r--r-- 1 rkirian rkirian 528M Jan 17  2018 ../rawdata/microjets/20180117/44_08_02_SC30I/82.tif
-rw-r--r-- 1 rkirian rkirian 528M Dec 28  2017 ../rawdata/microjets/20171228/44_10_03_SC30I/36.tif
-rw-r--r-- 1 rkirian rkirian 528M Dec 28  2017 ../rawdata/microjets/20171228/44_10_03_SC30I/35.tif
-rw-r--r-- 1 rkirian rkirian 528M Dec 11  2017 ../rawdata/microjets/20171211/44_08_01_SC30I/56.tif
-rw-r--r-- 1 rkirian rkirian 528M Dec 11  2017 ../rawdata/microjets/20171211/44_08_01_SC30I/55.tif
-rw-r--r-- 1 rkirian rkirian 528M Dec 11  2017 ../rawdata/microjets/20171211/44_08_01_SC30I/54.tif
-r--r--r-- 1 rkirian rkirian 528M Jan 22  2018 ../rawdata/microjets/2018/20180122/44_08_01_SC30I/78.tif
-r--r--r-- 1 rkirian rkirian 528M Jan 22  2018 ../rawdata/microjets/2018/20180122/44_08_01_SC30I/77.tif
-r--r--r-- 1 rkirian rkirian 528M Jan 17  2018 ../rawdata/microjets/2018/20180117/44_08_02_SC30I/85.tif
-r--r--r-- 1 rkirian rkirian 528M Jan 17  2018 ../rawdata/microjets/2018/20180117/44_08_02_SC30I/82.tif
-rw-r--r-- 1 rkirian rkirian 526M Jan 17  2018 ../rawdata/microjets/20180117/44_08_02_SC30I/83.tif
-r--r--r-- 1 rkirian rkirian 526M Jan 17  2018 ../rawdata/microjets/2018/20180117/44_08_02_SC30I/83.tif
-rw-r--r-- 1 rkirian rkirian 525M Sep  5  2017 ../rawdata/microjets/2017/20170905/44_07_02_SC30I/013.tif
-rw-r--r-- 1 rkirian rkirian 525M Sep  5  2017 ../rawdata/microjets/20170905/44_07_02_SC30I/013.tif
-rw-r--r-- 1 rkirian rkirian 523M Aug 28  2017 ../rawdata/microjets/2017/20170828/44_05_01_SC30I/005.tif
-rw-r--r-- 1 rkirian rkirian 523M Aug 28  2017 ../rawdata/microjets/20170828/44_05_01_SC30I/005.tif
-rwxrwx--- 1 rkirian rkirian 516M Jul 26  2017 ../rawdata/microjets/2017/20170726/44_05_01SC30I/001.tif
-rw-r--r-- 1 rkirian rkirian 516M Jul 26  2017 ../rawdata/microjets/2017/20170726/44_05_01SC30I/001_imp.tif
-rw-r--r-- 1 rkirian rkirian 516M Jul 26  2017 ../rawdata/microjets/20170726/44_05_01SC30I/001_imp.tif
-rw-r--r-- 1 rkirian rkirian 513M Sep  5  2017 ../rawdata/microjets/2017/20170905/44_07_02_SC30I/009.tif
-rw-r--r-- 1 rkirian rkirian 513M Sep  5  2017 ../rawdata/microjets/20170905/44_07_02_SC30I/009.tif
-rw-r--r-- 1 rkirian rkirian 510M Sep  5  2017 ../rawdata/microjets/2017/20170905/44_07_02_SC30I/010.tif
-rw-r--r-- 1 rkirian rkirian 510M Sep  5  2017 ../rawdata/microjets/20170905/44_07_02_SC30I/010.tif
-rw-r--r-- 1 rkirian rkirian 505M Sep  7  2017 ../rawdata/microjets/2017/20170907/44_08_01_SC30I/0034.tif
-rw-r--r-- 1 rkirian rkirian 505M Sep  7  2017 ../rawdata/microjets/20170907/44_08_01_SC30I/0034.tif
-rw-r--r-- 1 rkirian rkirian 492M Aug 28  2017 ../rawdata/microjets/2017/20170828/44_05_01_SC30I/003.tif
-rw-r--r-- 1 rkirian rkirian 492M Aug 28  2017 ../rawdata/microjets/20170828/44_05_01_SC30I/003.tif
-rw-r--r-- 1 rkirian rkirian 490M Sep  5  2017 ../rawdata/microjets/2017/20170905/44_07_02_SC30I/012.tif
-rw-r--r-- 1 rkirian rkirian 490M Sep  5  2017 ../rawdata/microjets/20170905/44_07_02_SC30I/012.tif
-rw-r--r-- 1 rkirian rkirian 490M Aug  2  2017 ../rawdata/microjets/2017/20170802/44_06_03_SC30I/001.tif
-rw-r--r-- 1 rkirian rkirian 490M Aug  2  2017 ../rawdata/microjets/20170802/44_06_03_SC30I/001.tif
-rw-r--r-- 1 rkirian rkirian 484M Sep  6  2017 ../rawdata/microjets/2017/20170906/44_07_03_SC30I/025.tif
-rw-r--r-- 1 rkirian rkirian 484M Sep  6  2017 ../rawdata/microjets/20170906/44_07_03_SC30I/025.tif
-rwxrwx--- 1 rkirian rkirian 474M Jul 26  2017 ../rawdata/microjets/2017/20170726/44_05_02_SC30I/001.tif
-rw-r--r-- 1 rkirian rkirian 474M Jul 26  2017 ../rawdata/microjets/2017/20170726/44_05_02_SC30I/001_imp.tif
-rw-r--r-- 1 rkirian rkirian 474M Jul 26  2017 ../rawdata/microjets/20170726/44_05_02_SC30I/001_imp.tif
-rwxrwx--- 1 rkirian rkirian 460M Jul 26  2017 ../rawdata/microjets/2017/20170726/44_05_01SC30I/002.tif
-rw-r--r-- 1 rkirian rkirian 460M Jul 26  2017 ../rawdata/microjets/2017/20170726/44_05_01SC30I/002_imp.tif
-rw-r--r-- 1 rkirian rkirian 460M Jul 26  2017 ../rawdata/microjets/20170726/44_05_01SC30I/002_imp.tif
-rw-rw-r-- 1 rkirian rkirian 453M Oct 10  2018 ../rawdata/microjets/2017/20171228/44_10_03_SC30I/32.tif
-rw-rw-r-- 1 rkirian rkirian 453M Oct 10  2018 ../rawdata/microjets/2017/20171211/44_08_01_SC30I/53.tif
-rw-rw-r-- 1 rkirian rkirian 453M Oct 10  2018 ../rawdata/microjets/2017/20171211/44_08_01_SC30I/52.tif
-rw-r--r-- 1 rkirian rkirian 453M Sep  5  2017 ../rawdata/microjets/2017/20170905/44_07_03_SC30I/008.tif
-rw-r--r-- 1 rkirian rkirian 453M Sep  5  2017 ../rawdata/microjets/2017/20170905/44_07_02_SC30I/016.tif
-rw-r--r-- 1 rkirian rkirian 453M Sep  5  2017 ../rawdata/microjets/20170905/44_07_03_SC30I/008.tif
-rw-r--r-- 1 rkirian rkirian 453M Sep  5  2017 ../rawdata/microjets/20170905/44_07_02_SC30I/016.tif
-rw-r--r-- 1 rkirian rkirian 453M Jan 22  2018 ../rawdata/microjets/20180122/44_08_01_SC30I/76.tif
-rw-r--r-- 1 rkirian rkirian 453M Jan 17  2018 ../rawdata/microjets/20180117/44_08_02_SC30I/84.tif
-rw-r--r-- 1 rkirian rkirian 453M Jan 17  2018 ../rawdata/microjets/20180117/44_08_02_SC30I/81.tif
-rw-r--r-- 1 rkirian rkirian 453M Jan 17  2018 ../rawdata/microjets/20180117/44_08_02_SC30I/80.tif
-rw-r--r-- 1 rkirian rkirian 453M Jan 17  2018 ../rawdata/microjets/20180117/44_08_02_SC30I/79.tif
-rw-r--r-- 1 rkirian rkirian 453M Dec 28  2017 ../rawdata/microjets/20171228/44_10_03_SC30I/32.tif
-rw-r--r-- 1 rkirian rkirian 453M Dec 11  2017 ../rawdata/microjets/20171211/44_08_01_SC30I/53.tif
-rw-r--r-- 1 rkirian rkirian 453M Dec 11  2017 ../rawdata/microjets/20171211/44_08_01_SC30I/52.tif
-r--r--r-- 1 rkirian rkirian 453M Jan 22  2018 ../rawdata/microjets/2018/20180122/44_08_01_SC30I/76.tif
-r--r--r-- 1 rkirian rkirian 453M Jan 17  2018 ../rawdata/microjets/2018/20180117/44_08_02_SC30I/84.tif
-r--r--r-- 1 rkirian rkirian 453M Jan 17  2018 ../rawdata/microjets/2018/20180117/44_08_02_SC30I/81.tif
-r--r--r-- 1 rkirian rkirian 453M Jan 17  2018 ../rawdata/microjets/2018/20180117/44_08_02_SC30I/80.tif
-r--r--r-- 1 rkirian rkirian 453M Jan 17  2018 ../rawdata/microjets/2018/20180117/44_08_02_SC30I/79.tif
-rwxrwx--- 1 rkirian rkirian 451M Jul 29  2017 ../rawdata/microjets/2017/20170729/44_05_02_SC30I/002.tif
-rw-r--r-- 1 rkirian rkirian 451M Jul 29  2017 ../rawdata/microjets/2017/20170729/44_05_02_SC30I/002_imp.tif
-rw-r--r-- 1 rkirian rkirian 451M Jul 29  2017 ../rawdata/microjets/20170729/44_05_02_SC30I/002_imp.tif
-rw-r--r-- 1 rkirian rkirian 440M Sep 10  2017 ../rawdata/microjets/2017/20170910/44_08_02_SC30I/014.tif
-rw-r--r-- 1 rkirian rkirian 440M Sep 10  2017 ../rawdata/microjets/20170910/44_08_02_SC30I/014.tif
-rwxrwx--- 1 rkirian rkirian 430M Jul 27  2017 ../rawdata/microjets/2017/20170727/44_05_03_SC30I/002.tif
-rw-r--r-- 1 rkirian rkirian 430M Jul 27  2017 ../rawdata/microjets/2017/20170727/44_05_03_SC30I/002_imp.tif
-rw-r--r-- 1 rkirian rkirian 430M Jul 27  2017 ../rawdata/microjets/20170727/44_05_03_SC30I/002_imp.tif
-rw-r--r-- 1 rkirian rkirian 421M Aug 29  2017 ../rawdata/microjets/2017/20170829/44_05_01_SC30I/011.tif
-rw-r--r-- 1 rkirian rkirian 421M Aug 29  2017 ../rawdata/microjets/20170829/44_05_01_SC30I/011.tif
-rw-r--r-- 1 rkirian rkirian 412M Aug 28  2017 ../rawdata/microjets/2017/20170828/44_05_01_SC30I/010.tif
-rw-r--r-- 1 rkirian rkirian 412M Aug 28  2017 ../rawdata/microjets/20170828/44_05_01_SC30I/010.tif
-rwxrwx--- 1 rkirian rkirian 406M Jul 29  2017 ../rawdata/microjets/2017/20170729/44_05_02_SC30I/003.tif
-rw-r--r-- 1 rkirian rkirian 406M Jul 29  2017 ../rawdata/microjets/2017/20170729/44_05_02_SC30I/003_imp.tif
-rw-r--r-- 1 rkirian rkirian 406M Jul 29  2017 ../rawdata/microjets/20170729/44_05_02_SC30I/003_imp.tif
-rwxrwx--- 1 rkirian rkirian 397M Jul 27  2017 ../rawdata/microjets/2017/20170727/44_05_03_SC30I/001.tif
-rw-r--r-- 1 rkirian rkirian 397M Jul 27  2017 ../rawdata/microjets/2017/20170727/44_05_03_SC30I/001_imp.tif
-rw-r--r-- 1 rkirian rkirian 397M Jul 27  2017 ../rawdata/microjets/20170727/44_05_03_SC30I/001_imp.tif
-rw-r--r-- 1 rkirian rkirian 388M Aug 29  2017 ../rawdata/microjets/2017/20170829/44_05_01_SC30I/012.tif
-rw-r--r-- 1 rkirian rkirian 388M Aug 29  2017 ../rawdata/microjets/20170829/44_05_01_SC30I/012.tif
-rw-r--r-- 1 rkirian rkirian 388M Aug  1  2017 ../rawdata/microjets/2017/20170801/44_06_01_SC30I/003.tif
-rw-r--r-- 1 rkirian rkirian 388M Aug  1  2017 ../rawdata/microjets/20170801/44_06_01_SC30I/003.tif
-rw-rw-r-- 1 rkirian rkirian 377M Oct 10  2018 ../rawdata/microjets/2017/20171228/44_10_03_SC30I/31.tif
-rw-rw-r-- 1 rkirian rkirian 377M Oct 10  2018 ../rawdata/microjets/2017/20171221/44_10_03_SC30I/27.tif
-rw-rw-r-- 1 rkirian rkirian 377M Oct 10  2018 ../rawdata/microjets/2017/20171221/44_10_03_SC30I/26.tif
-rw-rw-r-- 1 rkirian rkirian 377M Oct 10  2018 ../rawdata/microjets/2017/20171221/44_10_03_SC30I/25.tif
-rw-rw-r-- 1 rkirian rkirian 377M Oct 10  2018 ../rawdata/microjets/2017/20171221/44_10_03_SC30I/22.tif
-rw-rw-r-- 1 rkirian rkirian 377M Oct 10  2018 ../rawdata/microjets/2017/20171221/44_10_03_SC30I/18.tif
-rw-rw-r-- 1 rkirian rkirian 377M Oct 10  2018 ../rawdata/microjets/2017/20171221/44_10_03_SC30I/17.tif
-rw-rw-r-- 1 rkirian rkirian 377M Oct 10  2018 ../rawdata/microjets/2017/20171221/44_10_03_SC30I/16.tif
-rw-rw-r-- 1 rkirian rkirian 377M Oct 10  2018 ../rawdata/microjets/2017/20171221/44_10_03_SC30I/09.tif
-rw-rw-r-- 1 rkirian rkirian 377M Oct 10  2018 ../rawdata/microjets/2017/20171221/44_10_03_SC30I/07.tif
-rw-r--r-- 1 rkirian rkirian 377M Sep  7  2017 ../rawdata/microjets/2017/20170907/44_08_01_SC30I/0030.tif
-rw-r--r-- 1 rkirian rkirian 377M Sep  7  2017 ../rawdata/microjets/20170907/44_08_01_SC30I/0030.tif
-rw-r--r-- 1 rkirian rkirian 377M Jan 22  2018 ../rawdata/microjets/20180122/44_08_01_SC30I/75.tif
-rw-r--r-- 1 rkirian rkirian 377M Jan 22  2018 ../rawdata/microjets/20180122/44_08_01_SC30I/74.tif
-rw-r--r-- 1 rkirian rkirian 377M Jan 17  2018 ../rawdata/microjets/20180117/44_08_02_SC30I/78.tif
-rw-r--r-- 1 rkirian rkirian 377M Jan 17  2018 ../rawdata/microjets/20180117/44_08_02_SC30I/77.tif
-rw-r--r-- 1 rkirian rkirian 377M Feb  1  2018 ../rawdata/microjets/20180201/44_05_01_SC30I/61.tif
-rw-r--r-- 1 rkirian rkirian 377M Dec 28  2017 ../rawdata/microjets/20171228/44_10_03_SC30I/31.tif
-rw-r--r-- 1 rkirian rkirian 377M Dec 21  2017 ../rawdata/microjets/20171221/44_10_03_SC30I/27.tif
-rw-r--r-- 1 rkirian rkirian 377M Dec 21  2017 ../rawdata/microjets/20171221/44_10_03_SC30I/26.tif
-rw-r--r-- 1 rkirian rkirian 377M Dec 21  2017 ../rawdata/microjets/20171221/44_10_03_SC30I/25.tif
-rw-r--r-- 1 rkirian rkirian 377M Dec 21  2017 ../rawdata/microjets/20171221/44_10_03_SC30I/22.tif
-rw-r--r-- 1 rkirian rkirian 377M Dec 21  2017 ../rawdata/microjets/20171221/44_10_03_SC30I/18.tif
-rw-r--r-- 1 rkirian rkirian 377M Dec 21  2017 ../rawdata/microjets/20171221/44_10_03_SC30I/17.tif
-rw-r--r-- 1 rkirian rkirian 377M Dec 21  2017 ../rawdata/microjets/20171221/44_10_03_SC30I/16.tif
-rw-r--r-- 1 rkirian rkirian 377M Dec 21  2017 ../rawdata/microjets/20171221/44_10_03_SC30I/09.tif
-rw-r--r-- 1 rkirian rkirian 377M Dec 21  2017 ../rawdata/microjets/20171221/44_10_03_SC30I/07.tif
-r--r--r-- 1 rkirian rkirian 377M Jan 22  2018 ../rawdata/microjets/2018/20180122/44_08_01_SC30I/75.tif
-r--r--r-- 1 rkirian rkirian 377M Jan 22  2018 ../rawdata/microjets/2018/20180122/44_08_01_SC30I/74.tif
-r--r--r-- 1 rkirian rkirian 377M Jan 17  2018 ../rawdata/microjets/2018/20180117/44_08_02_SC30I/78.tif
-r--r--r-- 1 rkirian rkirian 377M Jan 17  2018 ../rawdata/microjets/2018/20180117/44_08_02_SC30I/77.tif
-r--r--r-- 1 rkirian rkirian 377M Feb  1  2018 ../rawdata/microjets/2018/20180201/44_05_01_SC30I/61.tif
-rw-r--r-- 1 rkirian rkirian 370M Aug  1  2017 ../rawdata/microjets/2017/20170801/44_06_01_SC30I/002.tif
-rw-r--r-- 1 rkirian rkirian 370M Aug  1  2017 ../rawdata/microjets/20170801/44_06_01_SC30I/002.tif
-rw-r--r-- 1 rkirian rkirian 352M Sep 11  2017 ../rawdata/microjets/2017/20170911/44_08_02_SC30I/024.tif
-rw-r--r-- 1 rkirian rkirian 352M Sep 11  2017 ../rawdata/microjets/20170911/44_08_02_SC30I/024.tif
-rw-r--r-- 1 rkirian rkirian 334M Aug  1  2017 ../rawdata/microjets/2017/20170801/44_06_01_SC30I/001.tif
-rw-r--r-- 1 rkirian rkirian 334M Aug  1  2017 ../rawdata/microjets/20170801/44_06_01_SC30I/001.tif
-rw-r--r-- 1 rkirian rkirian 332M Aug  1  2017 ../rawdata/microjets/2017/20170801/44_06_02_SC30I/002.tif
-rw-r--r-- 1 rkirian rkirian 332M Aug  1  2017 ../rawdata/microjets/20170801/44_06_02_SC30I/002.tif
-rw-r--r-- 1 rkirian rkirian 331M Aug  1  2017 ../rawdata/microjets/2017/20170801/44_06_02_SC30I/003.tif
-rw-r--r-- 1 rkirian rkirian 331M Aug  1  2017 ../rawdata/microjets/20170801/44_06_02_SC30I/003.tif
-rw-r--r-- 1 rkirian rkirian 328M Aug 28  2017 ../rawdata/microjets/2017/20170828/44_05_01_SC30I/009.tif
-rw-r--r-- 1 rkirian rkirian 328M Aug 28  2017 ../rawdata/microjets/20170828/44_05_01_SC30I/009.tif
-rw-r--r-- 1 rkirian rkirian 316M Jul 26  2017 ../rawdata/microjets/2017/20170726/44_05_01_SC30I/004.tif
-rw-r--r-- 1 rkirian rkirian 316M Jul 26  2017 ../rawdata/microjets/20170726/44_05_01_SC30I/004.tif
-rw-rw-r-- 1 rkirian rkirian 302M Oct 10  2018 ../rawdata/microjets/2017/20171228/44_10_03_SC30I/30.tif
-rw-rw-r-- 1 rkirian rkirian 302M Oct 10  2018 ../rawdata/microjets/2017/20171228/44_10_03_SC30I/29.tif
-rw-rw-r-- 1 rkirian rkirian 302M Oct 10  2018 ../rawdata/microjets/2017/20171228/44_10_03_SC30I/28.tif
-rw-rw-r-- 1 rkirian rkirian 302M Oct 10  2018 ../rawdata/microjets/2017/20171221/44_10_03_SC30I/21.tif
-rw-rw-r-- 1 rkirian rkirian 302M Oct 10  2018 ../rawdata/microjets/2017/20171221/44_10_03_SC30I/20.tif
-rw-rw-r-- 1 rkirian rkirian 302M Oct 10  2018 ../rawdata/microjets/2017/20171221/44_10_03_SC30I/19.tif
-rw-rw-r-- 1 rkirian rkirian 302M Oct 10  2018 ../rawdata/microjets/2017/20171221/44_10_03_SC30I/15.tif
-rw-rw-r-- 1 rkirian rkirian 302M Oct 10  2018 ../rawdata/microjets/2017/20171221/44_10_03_SC30I/14.tif
-rw-rw-r-- 1 rkirian rkirian 302M Oct 10  2018 ../rawdata/microjets/2017/20171221/44_10_03_SC30I/13.tif
-rw-rw-r-- 1 rkirian rkirian 302M Oct 10  2018 ../rawdata/microjets/2017/20171221/44_10_03_SC30I/12.tif
-rw-rw-r-- 1 rkirian rkirian 302M Oct 10  2018 ../rawdata/microjets/2017/20171221/44_10_03_SC30I/08.tif
-rw-rw-r-- 1 rkirian rkirian 302M Oct 10  2018 ../rawdata/microjets/2017/20171221/44_10_03_SC30I/06.tif
-rw-rw-r-- 1 rkirian rkirian 302M Oct 10  2018 ../rawdata/microjets/2017/20171221/44_10_03_SC30I/05.tif
-rw-rw-r-- 1 rkirian rkirian 302M Oct 10  2018 ../rawdata/microjets/2017/20171211/44_08_01_SC30I/69.tif
-rw-rw-r-- 1 rkirian rkirian 302M Oct 10  2018 ../rawdata/microjets/2017/20171211/44_08_01_SC30I/66.tif
-rw-rw-r-- 1 rkirian rkirian 302M Oct 10  2018 ../rawdata/microjets/2017/20171211/44_08_01_SC30I/64.tif
-rw-rw-r-- 1 rkirian rkirian 302M Oct 10  2018 ../rawdata/microjets/2017/20171211/44_08_01_SC30I/62.tif
-rw-rw-r-- 1 rkirian rkirian 302M Oct 10  2018 ../rawdata/microjets/2017/20171211/44_08_01_SC30I/51.tif
-rw-rw-r-- 1 rkirian rkirian 302M Oct 10  2018 ../rawdata/microjets/2017/20171211/44_08_01_SC30I/50.tif
-rw-rw-r-- 1 rkirian rkirian 302M Oct 10  2018 ../rawdata/microjets/2017/20171211/44_08_01_SC30I/49.tif
-rw-rw-r-- 1 rkirian rkirian 302M Oct 10  2018 ../rawdata/microjets/2017/20171019/44_08_02_SC30I/73.tif
-rw-rw-r-- 1 rkirian rkirian 302M Oct 10  2018 ../rawdata/microjets/2017/20171019/44_08_02_SC30I/72.tif
-rw-rw-r-- 1 rkirian rkirian 302M Oct 10  2018 ../rawdata/microjets/2017/20171019/44_08_02_SC30I/71.tif
-rw-rw-r-- 1 rkirian rkirian 302M Oct 10  2018 ../rawdata/microjets/2017/20171019/44_08_02_SC30I/70.tif
-rw-rw-r-- 1 rkirian rkirian 302M Oct 10  2018 ../rawdata/microjets/2017/20171019/44_08_02_SC30I/69.tif
-rw-rw-r-- 1 rkirian rkirian 302M Oct 10  2018 ../rawdata/microjets/2017/20171019/44_08_02_SC30I/68.tif
-rw-rw-r-- 1 rkirian rkirian 302M Oct 10  2018 ../rawdata/microjets/2017/20171019/44_08_02_SC30I/67.tif
-rw-rw-r-- 1 rkirian rkirian 302M Oct 10  2018 ../rawdata/microjets/2017/20171019/44_08_02_SC30I/66.tif
-rw-rw-r-- 1 rkirian rkirian 302M Oct 10  2018 ../rawdata/microjets/2017/20171019/44_08_02_SC30I/65.tif
-rw-rw-r-- 1 rkirian rkirian 302M Oct 10  2018 ../rawdata/microjets/2017/20171019/44_08_02_SC30I/64.tif
-rw-rw-r-- 1 rkirian rkirian 302M Oct 10  2018 ../rawdata/microjets/2017/20171019/44_08_02_SC30I/63.tif
-rw-rw-r-- 1 rkirian rkirian 302M Oct 10  2018 ../rawdata/microjets/2017/20171019/44_08_02_SC30I/62.tif
-rw-rw-r-- 1 rkirian rkirian 302M Oct 10  2018 ../rawdata/microjets/2017/20171019/44_08_02_SC30I/61.tif
-rw-rw-r-- 1 rkirian rkirian 302M Oct 10  2018 ../rawdata/microjets/2017/20171019/44_08_02_SC30I/60.tif
-rw-rw-r-- 1 rkirian rkirian 302M Oct 10  2018 ../rawdata/microjets/2017/20171019/44_08_02_SC30I/59.tif
-rw-rw-r-- 1 rkirian rkirian 302M Oct 10  2018 ../rawdata/microjets/2017/20171019/44_08_02_SC30I/58.tif
-rw-rw-r-- 1 rkirian rkirian 302M Oct 10  2018 ../rawdata/microjets/2017/20171019/44_08_02_SC30I/57.tif
-rw-rw-r-- 1 rkirian rkirian 302M Oct 10  2018 ../rawdata/microjets/2017/20171019/44_08_02_SC30I/56.tif
-rw-rw-r-- 1 rkirian rkirian 302M Oct 10  2018 ../rawdata/microjets/2017/20171019/44_08_02_SC30I/55.tif
-rw-rw-r-- 1 rkirian rkirian 302M Oct 10  2018 ../rawdata/microjets/2017/20171019/44_08_02_SC30I/54.tif
-rw-rw-r-- 1 rkirian rkirian 302M Oct 10  2018 ../rawdata/microjets/2017/20171019/44_08_02_SC30I/53.tif
-rw-rw-r-- 1 rkirian rkirian 302M Oct 10  2018 ../rawdata/microjets/2017/20171019/44_08_02_SC30I/52.tif
-rw-rw-r-- 1 rkirian rkirian 302M Oct 10  2018 ../rawdata/microjets/2017/20171019/44_08_02_SC30I/51.tif
-rw-rw-r-- 1 rkirian rkirian 302M Oct 10  2018 ../rawdata/microjets/2017/20171019/44_08_02_SC30I/50.tif
-rw-rw-r-- 1 rkirian rkirian 302M Oct 10  2018 ../rawdata/microjets/2017/20171019/44_08_02_SC30I/49.tif
-rw-r--r-- 1 rkirian rkirian 302M Sep  7  2017 ../rawdata/microjets/2017/20170907/44_08_01_SC30I/043.tif
-rw-r--r-- 1 rkirian rkirian 302M Sep  7  2017 ../rawdata/microjets/2017/20170907/44_08_01_SC30I/042.tif
-rw-r--r-- 1 rkirian rkirian 302M Sep  7  2017 ../rawdata/microjets/2017/20170907/44_08_01_SC30I/040.tif
-rw-r--r-- 1 rkirian rkirian 302M Sep  7  2017 ../rawdata/microjets/2017/20170907/44_08_01_SC30I/0039.tif
-rw-r--r-- 1 rkirian rkirian 302M Sep  7  2017 ../rawdata/microjets/2017/20170907/44_08_01_SC30I/0036.tif
-rw-r--r-- 1 rkirian rkirian 302M Sep  7  2017 ../rawdata/microjets/2017/20170907/44_08_01_SC30I/0035.tif
-rw-r--r-- 1 rkirian rkirian 302M Sep  7  2017 ../rawdata/microjets/2017/20170907/44_08_01_SC30I/0033.tif
-rw-r--r-- 1 rkirian rkirian 302M Sep  7  2017 ../rawdata/microjets/2017/20170907/44_08_01_SC30I/0032.tif
-rw-r--r-- 1 rkirian rkirian 302M Sep  7  2017 ../rawdata/microjets/20170907/44_08_01_SC30I/043.tif
-rw-r--r-- 1 rkirian rkirian 302M Sep  7  2017 ../rawdata/microjets/20170907/44_08_01_SC30I/042.tif
-rw-r--r-- 1 rkirian rkirian 302M Sep  7  2017 ../rawdata/microjets/20170907/44_08_01_SC30I/040.tif
-rw-r--r-- 1 rkirian rkirian 302M Sep  7  2017 ../rawdata/microjets/20170907/44_08_01_SC30I/0039.tif
-rw-r--r-- 1 rkirian rkirian 302M Sep  7  2017 ../rawdata/microjets/20170907/44_08_01_SC30I/0036.tif
-rw-r--r-- 1 rkirian rkirian 302M Sep  7  2017 ../rawdata/microjets/20170907/44_08_01_SC30I/0035.tif
-rw-r--r-- 1 rkirian rkirian 302M Sep  7  2017 ../rawdata/microjets/20170907/44_08_01_SC30I/0033.tif
-rw-r--r-- 1 rkirian rkirian 302M Sep  7  2017 ../rawdata/microjets/20170907/44_08_01_SC30I/0032.tif
-rw-r--r-- 1 rkirian rkirian 302M Sep  6  2017 ../rawdata/microjets/2017/20170906/44_08_01_SC30I/009.tif
-rw-r--r-- 1 rkirian rkirian 302M Sep  6  2017 ../rawdata/microjets/2017/20170906/44_08_01_SC30I/008.tif
-rw-r--r-- 1 rkirian rkirian 302M Sep  6  2017 ../rawdata/microjets/2017/20170906/44_08_01_SC30I/007.tif
-rw-r--r-- 1 rkirian rkirian 302M Sep  6  2017 ../rawdata/microjets/2017/20170906/44_08_01_SC30I/002.tif
-rw-r--r-- 1 rkirian rkirian 302M Sep  6  2017 ../rawdata/microjets/2017/20170906/44_08_01_SC30I/0025.tif
-rw-r--r-- 1 rkirian rkirian 302M Sep  6  2017 ../rawdata/microjets/2017/20170906/44_08_01_SC30I/0024.tif
-rw-r--r-- 1 rkirian rkirian 302M Sep  6  2017 ../rawdata/microjets/2017/20170906/44_08_01_SC30I/0023.tif
-rw-r--r-- 1 rkirian rkirian 302M Sep  6  2017 ../rawdata/microjets/2017/20170906/44_08_01_SC30I/0022.tif
-rw-r--r-- 1 rkirian rkirian 302M Sep  6  2017 ../rawdata/microjets/2017/20170906/44_08_01_SC30I/0021.tif
-rw-r--r-- 1 rkirian rkirian 302M Sep  6  2017 ../rawdata/microjets/2017/20170906/44_08_01_SC30I/0017.tif
-rw-r--r-- 1 rkirian rkirian 302M Sep  6  2017 ../rawdata/microjets/2017/20170906/44_08_01_SC30I/0015.tif
-rw-r--r-- 1 rkirian rkirian 302M Sep  6  2017 ../rawdata/microjets/2017/20170906/44_08_01_SC30I/0013.tif
-rw-r--r-- 1 rkirian rkirian 302M Sep  6  2017 ../rawdata/microjets/2017/20170906/44_07_03_SC30I/042.tif
-rw-r--r-- 1 rkirian rkirian 302M Sep  6  2017 ../rawdata/microjets/2017/20170906/44_07_03_SC30I/041.tif
-rw-r--r-- 1 rkirian rkirian 302M Sep  6  2017 ../rawdata/microjets/2017/20170906/44_07_03_SC30I/040.tif
-rw-r--r-- 1 rkirian rkirian 302M Sep  6  2017 ../rawdata/microjets/2017/20170906/44_07_03_SC30I/032.tif
-rw-r--r-- 1 rkirian rkirian 302M Sep  6  2017 ../rawdata/microjets/2017/20170906/44_07_03_SC30I/024.tif
-rw-r--r-- 1 rkirian rkirian 302M Sep  6  2017 ../rawdata/microjets/2017/20170906/44_07_03_SC30I/012.tif
-rw-r--r-- 1 rkirian rkirian 302M Sep  6  2017 ../rawdata/microjets/20170906/44_08_01_SC30I/009.tif
-rw-r--r-- 1 rkirian rkirian 302M Sep  6  2017 ../rawdata/microjets/20170906/44_08_01_SC30I/008.tif
-rw-r--r-- 1 rkirian rkirian 302M Sep  6  2017 ../rawdata/microjets/20170906/44_08_01_SC30I/007.tif
-rw-r--r-- 1 rkirian rkirian 302M Sep  6  2017 ../rawdata/microjets/20170906/44_08_01_SC30I/002.tif
-rw-r--r-- 1 rkirian rkirian 302M Sep  6  2017 ../rawdata/microjets/20170906/44_08_01_SC30I/0025.tif
-rw-r--r-- 1 rkirian rkirian 302M Sep  6  2017 ../rawdata/microjets/20170906/44_08_01_SC30I/0024.tif
-rw-r--r-- 1 rkirian rkirian 302M Sep  6  2017 ../rawdata/microjets/20170906/44_08_01_SC30I/0023.tif
-rw-r--r-- 1 rkirian rkirian 302M Sep  6  2017 ../rawdata/microjets/20170906/44_08_01_SC30I/0022.tif
-rw-r--r-- 1 rkirian rkirian 302M Sep  6  2017 ../rawdata/microjets/20170906/44_08_01_SC30I/0021.tif
-rw-r--r-- 1 rkirian rkirian 302M Sep  6  2017 ../rawdata/microjets/20170906/44_08_01_SC30I/0017.tif
-rw-r--r-- 1 rkirian rkirian 302M Sep  6  2017 ../rawdata/microjets/20170906/44_08_01_SC30I/0015.tif
-rw-r--r-- 1 rkirian rkirian 302M Sep  6  2017 ../rawdata/microjets/20170906/44_08_01_SC30I/0013.tif
-rw-r--r-- 1 rkirian rkirian 302M Sep  6  2017 ../rawdata/microjets/20170906/44_07_03_SC30I/042.tif
-rw-r--r-- 1 rkirian rkirian 302M Sep  6  2017 ../rawdata/microjets/20170906/44_07_03_SC30I/041.tif
-rw-r--r-- 1 rkirian rkirian 302M Sep  6  2017 ../rawdata/microjets/20170906/44_07_03_SC30I/040.tif
-rw-r--r-- 1 rkirian rkirian 302M Sep  6  2017 ../rawdata/microjets/20170906/44_07_03_SC30I/032.tif
-rw-r--r-- 1 rkirian rkirian 302M Sep  6  2017 ../rawdata/microjets/20170906/44_07_03_SC30I/024.tif
-rw-r--r-- 1 rkirian rkirian 302M Sep  6  2017 ../rawdata/microjets/20170906/44_07_03_SC30I/012.tif
-rw-r--r-- 1 rkirian rkirian 302M Sep  5  2017 ../rawdata/microjets/2017/20170905/44_07_03_SC30I/007.tif
-rw-r--r-- 1 rkirian rkirian 302M Sep  5  2017 ../rawdata/microjets/2017/20170905/44_07_03_SC30I/005.tif
-rw-r--r-- 1 rkirian rkirian 302M Sep  5  2017 ../rawdata/microjets/2017/20170905/44_07_03_SC30I/001.tif
-rw-r--r-- 1 rkirian rkirian 302M Sep  5  2017 ../rawdata/microjets/20170905/44_07_03_SC30I/007.tif
-rw-r--r-- 1 rkirian rkirian 302M Sep  5  2017 ../rawdata/microjets/20170905/44_07_03_SC30I/005.tif
-rw-r--r-- 1 rkirian rkirian 302M Sep  5  2017 ../rawdata/microjets/20170905/44_07_03_SC30I/001.tif
-rw-r--r-- 1 rkirian rkirian 302M Sep 11  2017 ../rawdata/microjets/2017/20170911/44_08_02_SC30I/044.tif
-rw-r--r-- 1 rkirian rkirian 302M Sep 11  2017 ../rawdata/microjets/2017/20170911/44_08_02_SC30I/041.tif
-rw-r--r-- 1 rkirian rkirian 302M Sep 11  2017 ../rawdata/microjets/2017/20170911/44_08_02_SC30I/040.tif
-rw-r--r-- 1 rkirian rkirian 302M Sep 11  2017 ../rawdata/microjets/2017/20170911/44_08_02_SC30I/039.tif
-rw-r--r-- 1 rkirian rkirian 302M Sep 11  2017 ../rawdata/microjets/2017/20170911/44_08_02_SC30I/038.tif
-rw-r--r-- 1 rkirian rkirian 302M Sep 11  2017 ../rawdata/microjets/2017/20170911/44_08_02_SC30I/037.tif
-rw-r--r-- 1 rkirian rkirian 302M Sep 11  2017 ../rawdata/microjets/2017/20170911/44_08_02_SC30I/036.tif
-rw-r--r-- 1 rkirian rkirian 302M Sep 11  2017 ../rawdata/microjets/2017/20170911/44_08_02_SC30I/034.tif
-rw-r--r-- 1 rkirian rkirian 302M Sep 11  2017 ../rawdata/microjets/2017/20170911/44_08_02_SC30I/033.tif
-rw-r--r-- 1 rkirian rkirian 302M Sep 11  2017 ../rawdata/microjets/2017/20170911/44_08_02_SC30I/032.tif
-rw-r--r-- 1 rkirian rkirian 302M Sep 11  2017 ../rawdata/microjets/2017/20170911/44_08_02_SC30I/031.tif
-rw-r--r-- 1 rkirian rkirian 302M Sep 11  2017 ../rawdata/microjets/2017/20170911/44_08_02_SC30I/030.tif
-rw-r--r-- 1 rkirian rkirian 302M Sep 11  2017 ../rawdata/microjets/2017/20170911/44_08_02_SC30I/029.tif
-rw-r--r-- 1 rkirian rkirian 302M Sep 11  2017 ../rawdata/microjets/2017/20170911/44_08_02_SC30I/028.tif
-rw-r--r-- 1 rkirian rkirian 302M Sep 11  2017 ../rawdata/microjets/2017/20170911/44_08_02_SC30I/026.tif
-rw-r--r-- 1 rkirian rkirian 302M Sep 11  2017 ../rawdata/microjets/2017/20170911/44_08_02_SC30I/025.tif
-rw-r--r-- 1 rkirian rkirian 302M Sep 11  2017 ../rawdata/microjets/2017/20170911/44_08_02_SC30I/023.tif
-rw-r--r-- 1 rkirian rkirian 302M Sep 11  2017 ../rawdata/microjets/2017/20170911/44_08_02_SC30I/022.tif
-rw-r--r-- 1 rkirian rkirian 302M Sep 11  2017 ../rawdata/microjets/2017/20170911/44_08_02_SC30I/021.tif
-rw-r--r-- 1 rkirian rkirian 302M Sep 11  2017 ../rawdata/microjets/2017/20170911/44_08_02_SC30I/020.tif
-rw-r--r-- 1 rkirian rkirian 302M Sep 11  2017 ../rawdata/microjets/2017/20170911/44_08_02_SC30I/019.tif
-rw-r--r-- 1 rkirian rkirian 302M Sep 11  2017 ../rawdata/microjets/20170911/44_08_02_SC30I/044.tif
-rw-r--r-- 1 rkirian rkirian 302M Sep 11  2017 ../rawdata/microjets/20170911/44_08_02_SC30I/041.tif
-rw-r--r-- 1 rkirian rkirian 302M Sep 11  2017 ../rawdata/microjets/20170911/44_08_02_SC30I/040.tif
-rw-r--r-- 1 rkirian rkirian 302M Sep 11  2017 ../rawdata/microjets/20170911/44_08_02_SC30I/039.tif
-rw-r--r-- 1 rkirian rkirian 302M Sep 11  2017 ../rawdata/microjets/20170911/44_08_02_SC30I/038.tif
-rw-r--r-- 1 rkirian rkirian 302M Sep 11  2017 ../rawdata/microjets/20170911/44_08_02_SC30I/037.tif
-rw-r--r-- 1 rkirian rkirian 302M Sep 11  2017 ../rawdata/microjets/20170911/44_08_02_SC30I/036.tif
-rw-r--r-- 1 rkirian rkirian 302M Sep 11  2017 ../rawdata/microjets/20170911/44_08_02_SC30I/034.tif
-rw-r--r-- 1 rkirian rkirian 302M Sep 11  2017 ../rawdata/microjets/20170911/44_08_02_SC30I/033.tif
-rw-r--r-- 1 rkirian rkirian 302M Sep 11  2017 ../rawdata/microjets/20170911/44_08_02_SC30I/032.tif
-rw-r--r-- 1 rkirian rkirian 302M Sep 11  2017 ../rawdata/microjets/20170911/44_08_02_SC30I/031.tif
-rw-r--r-- 1 rkirian rkirian 302M Sep 11  2017 ../rawdata/microjets/20170911/44_08_02_SC30I/030.tif
-rw-r--r-- 1 rkirian rkirian 302M Sep 11  2017 ../rawdata/microjets/20170911/44_08_02_SC30I/029.tif
-rw-r--r-- 1 rkirian rkirian 302M Sep 11  2017 ../rawdata/microjets/20170911/44_08_02_SC30I/028.tif
-rw-r--r-- 1 rkirian rkirian 302M Sep 11  2017 ../rawdata/microjets/20170911/44_08_02_SC30I/026.tif
-rw-r--r-- 1 rkirian rkirian 302M Sep 11  2017 ../rawdata/microjets/20170911/44_08_02_SC30I/025.tif
-rw-r--r-- 1 rkirian rkirian 302M Sep 11  2017 ../rawdata/microjets/20170911/44_08_02_SC30I/023.tif
-rw-r--r-- 1 rkirian rkirian 302M Sep 11  2017 ../rawdata/microjets/20170911/44_08_02_SC30I/022.tif
-rw-r--r-- 1 rkirian rkirian 302M Sep 11  2017 ../rawdata/microjets/20170911/44_08_02_SC30I/021.tif
-rw-r--r-- 1 rkirian rkirian 302M Sep 11  2017 ../rawdata/microjets/20170911/44_08_02_SC30I/020.tif
-rw-r--r-- 1 rkirian rkirian 302M Sep 11  2017 ../rawdata/microjets/20170911/44_08_02_SC30I/019.tif
-rw-r--r-- 1 rkirian rkirian 302M Sep 10  2017 ../rawdata/microjets/2017/20170910/44_08_02_SC30I/017.tif
-rw-r--r-- 1 rkirian rkirian 302M Sep 10  2017 ../rawdata/microjets/2017/20170910/44_08_02_SC30I/016.tif
-rw-r--r-- 1 rkirian rkirian 302M Sep 10  2017 ../rawdata/microjets/2017/20170910/44_08_02_SC30I/015.tif
-rw-r--r-- 1 rkirian rkirian 302M Sep 10  2017 ../rawdata/microjets/2017/20170910/44_08_02_SC30I/013.tif
-rw-r--r-- 1 rkirian rkirian 302M Sep 10  2017 ../rawdata/microjets/2017/20170910/44_08_02_SC30I/012.tif
-rw-r--r-- 1 rkirian rkirian 302M Sep 10  2017 ../rawdata/microjets/2017/20170910/44_08_02_SC30I/011.tif
-rw-r--r-- 1 rkirian rkirian 302M Sep 10  2017 ../rawdata/microjets/2017/20170910/44_08_02_SC30I/010.tif
-rw-r--r-- 1 rkirian rkirian 302M Sep 10  2017 ../rawdata/microjets/2017/20170910/44_08_02_SC30I/008.tif
-rw-r--r-- 1 rkirian rkirian 302M Sep 10  2017 ../rawdata/microjets/2017/20170910/44_08_02_SC30I/007.tif
-rw-r--r-- 1 rkirian rkirian 302M Sep 10  2017 ../rawdata/microjets/2017/20170910/44_08_02_SC30I/006.tif
-rw-r--r-- 1 rkirian rkirian 302M Sep 10  2017 ../rawdata/microjets/2017/20170910/44_08_02_SC30I/005.tif
-rw-r--r-- 1 rkirian rkirian 302M Sep 10  2017 ../rawdata/microjets/2017/20170910/44_08_02_SC30I/004.tif
-rw-r--r-- 1 rkirian rkirian 302M Sep 10  2017 ../rawdata/microjets/2017/20170910/44_08_02_SC30I/003.tif
-rw-r--r-- 1 rkirian rkirian 302M Sep 10  2017 ../rawdata/microjets/2017/20170910/44_08_02_SC30I/001.tif
-rw-r--r-- 1 rkirian rkirian 302M Sep 10  2017 ../rawdata/microjets/20170910/44_08_02_SC30I/017.tif
-rw-r--r-- 1 rkirian rkirian 302M Sep 10  2017 ../rawdata/microjets/20170910/44_08_02_SC30I/016.tif
-rw-r--r-- 1 rkirian rkirian 302M Sep 10  2017 ../rawdata/microjets/20170910/44_08_02_SC30I/015.tif
-rw-r--r-- 1 rkirian rkirian 302M Sep 10  2017 ../rawdata/microjets/20170910/44_08_02_SC30I/013.tif
-rw-r--r-- 1 rkirian rkirian 302M Sep 10  2017 ../rawdata/microjets/20170910/44_08_02_SC30I/012.tif
-rw-r--r-- 1 rkirian rkirian 302M Sep 10  2017 ../rawdata/microjets/20170910/44_08_02_SC30I/011.tif
-rw-r--r-- 1 rkirian rkirian 302M Sep 10  2017 ../rawdata/microjets/20170910/44_08_02_SC30I/010.tif
-rw-r--r-- 1 rkirian rkirian 302M Sep 10  2017 ../rawdata/microjets/20170910/44_08_02_SC30I/008.tif
-rw-r--r-- 1 rkirian rkirian 302M Sep 10  2017 ../rawdata/microjets/20170910/44_08_02_SC30I/007.tif
-rw-r--r-- 1 rkirian rkirian 302M Sep 10  2017 ../rawdata/microjets/20170910/44_08_02_SC30I/006.tif
-rw-r--r-- 1 rkirian rkirian 302M Sep 10  2017 ../rawdata/microjets/20170910/44_08_02_SC30I/005.tif
-rw-r--r-- 1 rkirian rkirian 302M Sep 10  2017 ../rawdata/microjets/20170910/44_08_02_SC30I/004.tif
-rw-r--r-- 1 rkirian rkirian 302M Sep 10  2017 ../rawdata/microjets/20170910/44_08_02_SC30I/003.tif
-rw-r--r-- 1 rkirian rkirian 302M Sep 10  2017 ../rawdata/microjets/20170910/44_08_02_SC30I/001.tif
-rw-r--r-- 1 rkirian rkirian 302M Oct 19  2017 ../rawdata/microjets/20171019/44_08_02_SC30I/73.tif
-rw-r--r-- 1 rkirian rkirian 302M Oct 19  2017 ../rawdata/microjets/20171019/44_08_02_SC30I/72.tif
-rw-r--r-- 1 rkirian rkirian 302M Oct 19  2017 ../rawdata/microjets/20171019/44_08_02_SC30I/71.tif
-rw-r--r-- 1 rkirian rkirian 302M Oct 19  2017 ../rawdata/microjets/20171019/44_08_02_SC30I/70.tif
-rw-r--r-- 1 rkirian rkirian 302M Oct 19  2017 ../rawdata/microjets/20171019/44_08_02_SC30I/69.tif
-rw-r--r-- 1 rkirian rkirian 302M Oct 19  2017 ../rawdata/microjets/20171019/44_08_02_SC30I/68.tif
-rw-r--r-- 1 rkirian rkirian 302M Oct 19  2017 ../rawdata/microjets/20171019/44_08_02_SC30I/67.tif
-rw-r--r-- 1 rkirian rkirian 302M Oct 19  2017 ../rawdata/microjets/20171019/44_08_02_SC30I/66.tif
-rw-r--r-- 1 rkirian rkirian 302M Oct 19  2017 ../rawdata/microjets/20171019/44_08_02_SC30I/65.tif
-rw-r--r-- 1 rkirian rkirian 302M Oct 19  2017 ../rawdata/microjets/20171019/44_08_02_SC30I/64.tif
-rw-r--r-- 1 rkirian rkirian 302M Oct 19  2017 ../rawdata/microjets/20171019/44_08_02_SC30I/63.tif
-rw-r--r-- 1 rkirian rkirian 302M Oct 19  2017 ../rawdata/microjets/20171019/44_08_02_SC30I/62.tif
-rw-r--r-- 1 rkirian rkirian 302M Oct 19  2017 ../rawdata/microjets/20171019/44_08_02_SC30I/61.tif
-rw-r--r-- 1 rkirian rkirian 302M Oct 19  2017 ../rawdata/microjets/20171019/44_08_02_SC30I/60.tif
-rw-r--r-- 1 rkirian rkirian 302M Oct 19  2017 ../rawdata/microjets/20171019/44_08_02_SC30I/59.tif
-rw-r--r-- 1 rkirian rkirian 302M Oct 19  2017 ../rawdata/microjets/20171019/44_08_02_SC30I/58.tif
-rw-r--r-- 1 rkirian rkirian 302M Oct 19  2017 ../rawdata/microjets/20171019/44_08_02_SC30I/57.tif
-rw-r--r-- 1 rkirian rkirian 302M Oct 19  2017 ../rawdata/microjets/20171019/44_08_02_SC30I/56.tif
-rw-r--r-- 1 rkirian rkirian 302M Oct 19  2017 ../rawdata/microjets/20171019/44_08_02_SC30I/55.tif
-rw-r--r-- 1 rkirian rkirian 302M Oct 19  2017 ../rawdata/microjets/20171019/44_08_02_SC30I/54.tif
-rw-r--r-- 1 rkirian rkirian 302M Oct 19  2017 ../rawdata/microjets/20171019/44_08_02_SC30I/53.tif
-rw-r--r-- 1 rkirian rkirian 302M Oct 19  2017 ../rawdata/microjets/20171019/44_08_02_SC30I/52.tif
-rw-r--r-- 1 rkirian rkirian 302M Oct 19  2017 ../rawdata/microjets/20171019/44_08_02_SC30I/51.tif
-rw-r--r-- 1 rkirian rkirian 302M Oct 19  2017 ../rawdata/microjets/20171019/44_08_02_SC30I/50.tif
-rw-r--r-- 1 rkirian rkirian 302M Oct 19  2017 ../rawdata/microjets/20171019/44_08_02_SC30I/49.tif
-rw-r--r-- 1 rkirian rkirian 302M Jan 17  2018 ../rawdata/microjets/20180117/44_08_02_SC30I/76.tif
-rw-r--r-- 1 rkirian rkirian 302M Jan 17  2018 ../rawdata/microjets/20180117/44_08_02_SC30I/75.tif
-rw-r--r-- 1 rkirian rkirian 302M Feb  1  2018 ../rawdata/microjets/20180201/44_05_01_SC30I/60.tif
-rw-r--r-- 1 rkirian rkirian 302M Feb  1  2018 ../rawdata/microjets/20180201/44_05_01_SC30I/59.tif
-rw-r--r-- 1 rkirian rkirian 302M Feb  1  2018 ../rawdata/microjets/20180201/44_05_01_SC30I/58.tif
-rw-r--r-- 1 rkirian rkirian 302M Feb  1  2018 ../rawdata/microjets/20180201/44_05_01_SC30I/57.tif
-rw-r--r-- 1 rkirian rkirian 302M Feb  1  2018 ../rawdata/microjets/20180201/44_05_01_SC30I/56.tif
-rw-r--r-- 1 rkirian rkirian 302M Dec 28  2017 ../rawdata/microjets/20171228/44_10_03_SC30I/30.tif
-rw-r--r-- 1 rkirian rkirian 302M Dec 28  2017 ../rawdata/microjets/20171228/44_10_03_SC30I/29.tif
-rw-r--r-- 1 rkirian rkirian 302M Dec 28  2017 ../rawdata/microjets/20171228/44_10_03_SC30I/28.tif
-rw-r--r-- 1 rkirian rkirian 302M Dec 21  2017 ../rawdata/microjets/20171221/44_10_03_SC30I/21.tif
-rw-r--r-- 1 rkirian rkirian 302M Dec 21  2017 ../rawdata/microjets/20171221/44_10_03_SC30I/20.tif
-rw-r--r-- 1 rkirian rkirian 302M Dec 21  2017 ../rawdata/microjets/20171221/44_10_03_SC30I/19.tif
-rw-r--r-- 1 rkirian rkirian 302M Dec 21  2017 ../rawdata/microjets/20171221/44_10_03_SC30I/15.tif
-rw-r--r-- 1 rkirian rkirian 302M Dec 21  2017 ../rawdata/microjets/20171221/44_10_03_SC30I/14.tif
-rw-r--r-- 1 rkirian rkirian 302M Dec 21  2017 ../rawdata/microjets/20171221/44_10_03_SC30I/13.tif
-rw-r--r-- 1 rkirian rkirian 302M Dec 21  2017 ../rawdata/microjets/20171221/44_10_03_SC30I/12.tif
-rw-r--r-- 1 rkirian rkirian 302M Dec 21  2017 ../rawdata/microjets/20171221/44_10_03_SC30I/08.tif
-rw-r--r-- 1 rkirian rkirian 302M Dec 21  2017 ../rawdata/microjets/20171221/44_10_03_SC30I/06.tif
-rw-r--r-- 1 rkirian rkirian 302M Dec 21  2017 ../rawdata/microjets/20171221/44_10_03_SC30I/05.tif
-rw-r--r-- 1 rkirian rkirian 302M Dec 11  2017 ../rawdata/microjets/20171211/44_08_01_SC30I/69.tif
-rw-r--r-- 1 rkirian rkirian 302M Dec 11  2017 ../rawdata/microjets/20171211/44_08_01_SC30I/66.tif
-rw-r--r-- 1 rkirian rkirian 302M Dec 11  2017 ../rawdata/microjets/20171211/44_08_01_SC30I/64.tif
-rw-r--r-- 1 rkirian rkirian 302M Dec 11  2017 ../rawdata/microjets/20171211/44_08_01_SC30I/62.tif
-rw-r--r-- 1 rkirian rkirian 302M Dec 11  2017 ../rawdata/microjets/20171211/44_08_01_SC30I/51.tif
-rw-r--r-- 1 rkirian rkirian 302M Dec 11  2017 ../rawdata/microjets/20171211/44_08_01_SC30I/50.tif
-rw-r--r-- 1 rkirian rkirian 302M Dec 11  2017 ../rawdata/microjets/20171211/44_08_01_SC30I/49.tif
-r--r--r-- 1 rkirian rkirian 302M Jan 17  2018 ../rawdata/microjets/2018/20180117/44_08_02_SC30I/76.tif
-r--r--r-- 1 rkirian rkirian 302M Jan 17  2018 ../rawdata/microjets/2018/20180117/44_08_02_SC30I/75.tif
-r--r--r-- 1 rkirian rkirian 302M Feb  1  2018 ../rawdata/microjets/2018/20180201/44_05_01_SC30I/60.tif
-r--r--r-- 1 rkirian rkirian 302M Feb  1  2018 ../rawdata/microjets/2018/20180201/44_05_01_SC30I/59.tif
-r--r--r-- 1 rkirian rkirian 302M Feb  1  2018 ../rawdata/microjets/2018/20180201/44_05_01_SC30I/58.tif
-r--r--r-- 1 rkirian rkirian 302M Feb  1  2018 ../rawdata/microjets/2018/20180201/44_05_01_SC30I/57.tif
-r--r--r-- 1 rkirian rkirian 302M Feb  1  2018 ../rawdata/microjets/2018/20180201/44_05_01_SC30I/56.tif
-rwxrwx--- 1 rkirian rkirian 299M Jul 29  2017 ../rawdata/microjets/2017/20170729/44_05_01_SC30I/002.tif
-rw-r--r-- 1 rkirian rkirian 299M Jul 29  2017 ../rawdata/microjets/2017/20170729/44_05_01_SC30I/002_imp.tif
-rw-r--r-- 1 rkirian rkirian 299M Jul 29  2017 ../rawdata/microjets/20170729/44_05_01_SC30I/002_imp.tif
-rw-r--r-- 1 rkirian rkirian 298M Aug 29  2017 ../rawdata/microjets/2017/20170829/44_05_01_SC30I/015.tif
-rw-r--r-- 1 rkirian rkirian 298M Aug 29  2017 ../rawdata/microjets/20170829/44_05_01_SC30I/015.tif
-rw-r--r-- 1 rkirian rkirian 296M Aug  1  2017 ../rawdata/microjets/2017/20170801/44_06_02_SC30I/001.tif
-rw-r--r-- 1 rkirian rkirian 296M Aug  1  2017 ../rawdata/microjets/20170801/44_06_02_SC30I/001.tif
-rw-r--r-- 1 rkirian rkirian 292M Aug 29  2017 ../rawdata/microjets/2017/20170829/44_05_01_SC30I/013.tif
-rw-r--r-- 1 rkirian rkirian 292M Aug 29  2017 ../rawdata/microjets/20170829/44_05_01_SC30I/013.tif
-rw-r--r-- 1 rkirian rkirian 274M Aug 29  2017 ../rawdata/microjets/2017/20170829/44_05_01_SC30I/017.tif
-rw-r--r-- 1 rkirian rkirian 274M Aug 29  2017 ../rawdata/microjets/20170829/44_05_01_SC30I/017.tif
-rw-r--r-- 1 rkirian rkirian 272M Sep  7  2017 ../rawdata/microjets/2017/20170907/44_08_01_SC30I/041.tif
-rw-r--r-- 1 rkirian rkirian 272M Sep  7  2017 ../rawdata/microjets/20170907/44_08_01_SC30I/041.tif
-rw-r--r-- 1 rkirian rkirian 272M Aug 29  2017 ../rawdata/microjets/2017/20170829/44_05_01_SC30I/023.tif
-rw-r--r-- 1 rkirian rkirian 272M Aug 29  2017 ../rawdata/microjets/20170829/44_05_01_SC30I/023.tif
-rw-r--r-- 1 rkirian rkirian 266M Aug 29  2017 ../rawdata/microjets/2017/20170829/44_05_01_SC30I/016.tif
-rw-r--r-- 1 rkirian rkirian 266M Aug 29  2017 ../rawdata/microjets/20170829/44_05_01_SC30I/016.tif
-rw-r--r-- 1 rkirian rkirian 262M Aug 29  2017 ../rawdata/microjets/2017/20170829/44_05_01_SC30I/014.tif
-rw-r--r-- 1 rkirian rkirian 262M Aug 29  2017 ../rawdata/microjets/20170829/44_05_01_SC30I/014.tif
-rw-r--r-- 1 rkirian rkirian 260M Aug 29  2017 ../rawdata/microjets/2017/20170829/44_05_01_SC30I/021.tif
-rw-r--r-- 1 rkirian rkirian 260M Aug 29  2017 ../rawdata/microjets/20170829/44_05_01_SC30I/021.tif
-rwxrwx--- 1 rkirian rkirian 242M Jul 29  2017 ../rawdata/microjets/2017/20170729/44_05_02_SC30I/001.tif
-rw-r--r-- 1 rkirian rkirian 242M Jul 29  2017 ../rawdata/microjets/2017/20170729/44_05_02_SC30I/001_imp.tif
-rw-r--r-- 1 rkirian rkirian 242M Jul 29  2017 ../rawdata/microjets/20170729/44_05_02_SC30I/001_imp.tif
-rw-r--r-- 1 rkirian rkirian 242M Aug 29  2017 ../rawdata/microjets/2017/20170829/44_05_01_SC30I/051.tif
-rw-r--r-- 1 rkirian rkirian 242M Aug 29  2017 ../rawdata/microjets/20170829/44_05_01_SC30I/051.tif
-rw-r--r-- 1 rkirian rkirian 239M Aug 29  2017 ../rawdata/microjets/2017/20170829/44_05_01_SC30I/022.tif
-rw-r--r-- 1 rkirian rkirian 239M Aug 29  2017 ../rawdata/microjets/20170829/44_05_01_SC30I/022.tif
-rw-r--r-- 1 rkirian rkirian 234M Aug 29  2017 ../rawdata/microjets/2017/20170829/44_05_01_SC30I/020.tif
-rw-r--r-- 1 rkirian rkirian 234M Aug 29  2017 ../rawdata/microjets/20170829/44_05_01_SC30I/020.tif
-rwxrwx--- 1 rkirian rkirian 233M Jul 29  2017 ../rawdata/microjets/2017/20170729/44_05_01_SC30I/001.tif
-rw-r--r-- 1 rkirian rkirian 233M Jul 29  2017 ../rawdata/microjets/2017/20170729/44_05_01_SC30I/001_imp.tif
-rw-r--r-- 1 rkirian rkirian 233M Jul 29  2017 ../rawdata/microjets/20170729/44_05_01_SC30I/001_imp.tif
-rw-rw-r-- 1 rkirian rkirian 227M Oct 10  2018 ../rawdata/microjets/2017/20171221/44_10_03_SC30I/24.tif
-rw-rw-r-- 1 rkirian rkirian 227M Oct 10  2018 ../rawdata/microjets/2017/20171221/44_10_03_SC30I/23.tif
-rw-rw-r-- 1 rkirian rkirian 227M Oct 10  2018 ../rawdata/microjets/2017/20171221/44_10_03_SC30I/11.tif
-rw-rw-r-- 1 rkirian rkirian 227M Oct 10  2018 ../rawdata/microjets/2017/20171221/44_10_03_SC30I/10.tif
-rw-rw-r-- 1 rkirian rkirian 227M Oct 10  2018 ../rawdata/microjets/2017/20171221/44_10_03_SC30I/04.tif
-rw-rw-r-- 1 rkirian rkirian 227M Oct 10  2018 ../rawdata/microjets/2017/20171221/44_10_03_SC30I/03.tif
-rw-rw-r-- 1 rkirian rkirian 227M Oct 10  2018 ../rawdata/microjets/2017/20171221/44_10_03_SC30I/02.tif
-rw-rw-r-- 1 rkirian rkirian 227M Oct 10  2018 ../rawdata/microjets/2017/20171221/44_10_03_SC30I/01.tif
-rw-r--r-- 1 rkirian rkirian 227M Sep  7  2017 ../rawdata/microjets/2017/20170907/44_08_01_SC30I/0031.tif
-rw-r--r-- 1 rkirian rkirian 227M Sep  7  2017 ../rawdata/microjets/20170907/44_08_01_SC30I/0031.tif
-rw-r--r-- 1 rkirian rkirian 227M Sep  6  2017 ../rawdata/microjets/2017/20170906/44_08_01_SC30I/006.tif
-rw-r--r-- 1 rkirian rkirian 227M Sep  6  2017 ../rawdata/microjets/2017/20170906/44_08_01_SC30I/005.tif
-rw-r--r-- 1 rkirian rkirian 227M Sep  6  2017 ../rawdata/microjets/2017/20170906/44_08_01_SC30I/004.tif
-rw-r--r-- 1 rkirian rkirian 227M Sep  6  2017 ../rawdata/microjets/2017/20170906/44_08_01_SC30I/003.tif
-rw-r--r-- 1 rkirian rkirian 227M Sep  6  2017 ../rawdata/microjets/2017/20170906/44_08_01_SC30I/0020.tif
-rw-r--r-- 1 rkirian rkirian 227M Sep  6  2017 ../rawdata/microjets/2017/20170906/44_08_01_SC30I/0018.tif
-rw-r--r-- 1 rkirian rkirian 227M Sep  6  2017 ../rawdata/microjets/2017/20170906/44_08_01_SC30I/0016.tif
-rw-r--r-- 1 rkirian rkirian 227M Sep  6  2017 ../rawdata/microjets/2017/20170906/44_08_01_SC30I/0014.tif
-rw-r--r-- 1 rkirian rkirian 227M Sep  6  2017 ../rawdata/microjets/2017/20170906/44_08_01_SC30I/0012.tif
-rw-r--r-- 1 rkirian rkirian 227M Sep  6  2017 ../rawdata/microjets/2017/20170906/44_07_03_SC30I/039.tif
-rw-r--r-- 1 rkirian rkirian 227M Sep  6  2017 ../rawdata/microjets/2017/20170906/44_07_03_SC30I/038.tif
-rw-r--r-- 1 rkirian rkirian 227M Sep  6  2017 ../rawdata/microjets/2017/20170906/44_07_03_SC30I/033.tif
-rw-r--r-- 1 rkirian rkirian 227M Sep  6  2017 ../rawdata/microjets/2017/20170906/44_07_03_SC30I/031.tif
-rw-r--r-- 1 rkirian rkirian 227M Sep  6  2017 ../rawdata/microjets/2017/20170906/44_07_03_SC30I/030.tif
-rw-r--r-- 1 rkirian rkirian 227M Sep  6  2017 ../rawdata/microjets/2017/20170906/44_07_03_SC30I/029.tif
-rw-r--r-- 1 rkirian rkirian 227M Sep  6  2017 ../rawdata/microjets/2017/20170906/44_07_03_SC30I/028.tif
-rw-r--r-- 1 rkirian rkirian 227M Sep  6  2017 ../rawdata/microjets/2017/20170906/44_07_03_SC30I/027.tif
-rw-r--r-- 1 rkirian rkirian 227M Sep  6  2017 ../rawdata/microjets/2017/20170906/44_07_03_SC30I/023.tif
-rw-r--r-- 1 rkirian rkirian 227M Sep  6  2017 ../rawdata/microjets/2017/20170906/44_07_03_SC30I/022.tif
-rw-r--r-- 1 rkirian rkirian 227M Sep  6  2017 ../rawdata/microjets/2017/20170906/44_07_03_SC30I/021.tif
-rw-r--r-- 1 rkirian rkirian 227M Sep  6  2017 ../rawdata/microjets/2017/20170906/44_07_03_SC30I/020.tif
-rw-r--r-- 1 rkirian rkirian 227M Sep  6  2017 ../rawdata/microjets/2017/20170906/44_07_03_SC30I/019.tif
-rw-r--r-- 1 rkirian rkirian 227M Sep  6  2017 ../rawdata/microjets/2017/20170906/44_07_03_SC30I/018.tif
-rw-r--r-- 1 rkirian rkirian 227M Sep  6  2017 ../rawdata/microjets/2017/20170906/44_07_03_SC30I/016.tif
-rw-r--r-- 1 rkirian rkirian 227M Sep  6  2017 ../rawdata/microjets/2017/20170906/44_07_03_SC30I/015.tif
-rw-r--r-- 1 rkirian rkirian 227M Sep  6  2017 ../rawdata/microjets/2017/20170906/44_07_03_SC30I/014.tif
-rw-r--r-- 1 rkirian rkirian 227M Sep  6  2017 ../rawdata/microjets/2017/20170906/44_07_03_SC30I/013.tif
-rw-r--r-- 1 rkirian rkirian 227M Sep  6  2017 ../rawdata/microjets/2017/20170906/44_07_03_SC30I/011.tif
-rw-r--r-- 1 rkirian rkirian 227M Sep  6  2017 ../rawdata/microjets/2017/20170905/44_07_03_SC30I/010.tif
-rw-r--r-- 1 rkirian rkirian 227M Sep  6  2017 ../rawdata/microjets/20170906/44_08_01_SC30I/006.tif
-rw-r--r-- 1 rkirian rkirian 227M Sep  6  2017 ../rawdata/microjets/20170906/44_08_01_SC30I/005.tif
-rw-r--r-- 1 rkirian rkirian 227M Sep  6  2017 ../rawdata/microjets/20170906/44_08_01_SC30I/004.tif
-rw-r--r-- 1 rkirian rkirian 227M Sep  6  2017 ../rawdata/microjets/20170906/44_08_01_SC30I/003.tif
-rw-r--r-- 1 rkirian rkirian 227M Sep  6  2017 ../rawdata/microjets/20170906/44_08_01_SC30I/0020.tif
-rw-r--r-- 1 rkirian rkirian 227M Sep  6  2017 ../rawdata/microjets/20170906/44_08_01_SC30I/0018.tif
-rw-r--r-- 1 rkirian rkirian 227M Sep  6  2017 ../rawdata/microjets/20170906/44_08_01_SC30I/0016.tif
-rw-r--r-- 1 rkirian rkirian 227M Sep  6  2017 ../rawdata/microjets/20170906/44_08_01_SC30I/0014.tif
-rw-r--r-- 1 rkirian rkirian 227M Sep  6  2017 ../rawdata/microjets/20170906/44_08_01_SC30I/0012.tif
-rw-r--r-- 1 rkirian rkirian 227M Sep  6  2017 ../rawdata/microjets/20170906/44_07_03_SC30I/039.tif
-rw-r--r-- 1 rkirian rkirian 227M Sep  6  2017 ../rawdata/microjets/20170906/44_07_03_SC30I/038.tif
-rw-r--r-- 1 rkirian rkirian 227M Sep  6  2017 ../rawdata/microjets/20170906/44_07_03_SC30I/033.tif
-rw-r--r-- 1 rkirian rkirian 227M Sep  6  2017 ../rawdata/microjets/20170906/44_07_03_SC30I/031.tif
-rw-r--r-- 1 rkirian rkirian 227M Sep  6  2017 ../rawdata/microjets/20170906/44_07_03_SC30I/030.tif
-rw-r--r-- 1 rkirian rkirian 227M Sep  6  2017 ../rawdata/microjets/20170906/44_07_03_SC30I/029.tif
-rw-r--r-- 1 rkirian rkirian 227M Sep  6  2017 ../rawdata/microjets/20170906/44_07_03_SC30I/028.tif
-rw-r--r-- 1 rkirian rkirian 227M Sep  6  2017 ../rawdata/microjets/20170906/44_07_03_SC30I/027.tif
-rw-r--r-- 1 rkirian rkirian 227M Sep  6  2017 ../rawdata/microjets/20170906/44_07_03_SC30I/023.tif
-rw-r--r-- 1 rkirian rkirian 227M Sep  6  2017 ../rawdata/microjets/20170906/44_07_03_SC30I/022.tif
-rw-r--r-- 1 rkirian rkirian 227M Sep  6  2017 ../rawdata/microjets/20170906/44_07_03_SC30I/021.tif
-rw-r--r-- 1 rkirian rkirian 227M Sep  6  2017 ../rawdata/microjets/20170906/44_07_03_SC30I/020.tif
-rw-r--r-- 1 rkirian rkirian 227M Sep  6  2017 ../rawdata/microjets/20170906/44_07_03_SC30I/019.tif
-rw-r--r-- 1 rkirian rkirian 227M Sep  6  2017 ../rawdata/microjets/20170906/44_07_03_SC30I/018.tif
-rw-r--r-- 1 rkirian rkirian 227M Sep  6  2017 ../rawdata/microjets/20170906/44_07_03_SC30I/016.tif
-rw-r--r-- 1 rkirian rkirian 227M Sep  6  2017 ../rawdata/microjets/20170906/44_07_03_SC30I/015.tif
-rw-r--r-- 1 rkirian rkirian 227M Sep  6  2017 ../rawdata/microjets/20170906/44_07_03_SC30I/014.tif
-rw-r--r-- 1 rkirian rkirian 227M Sep  6  2017 ../rawdata/microjets/20170906/44_07_03_SC30I/013.tif
-rw-r--r-- 1 rkirian rkirian 227M Sep  6  2017 ../rawdata/microjets/20170906/44_07_03_SC30I/011.tif
-rw-r--r-- 1 rkirian rkirian 227M Sep  6  2017 ../rawdata/microjets/20170905/44_07_03_SC30I/010.tif
-rw-r--r-- 1 rkirian rkirian 227M Sep  5  2017 ../rawdata/microjets/2017/20170905/44_07_03_SC30I/006.tif
-rw-r--r-- 1 rkirian rkirian 227M Sep  5  2017 ../rawdata/microjets/20170905/44_07_03_SC30I/006.tif
-rw-r--r-- 1 rkirian rkirian 227M Sep 10  2017 ../rawdata/microjets/2017/20170910/44_08_02_SC30I/002.tif
-rw-r--r-- 1 rkirian rkirian 227M Sep 10  2017 ../rawdata/microjets/20170910/44_08_02_SC30I/002.tif
-rw-r--r-- 1 rkirian rkirian 227M Jan 17  2018 ../rawdata/microjets/20180117/44_08_02_SC30I/74.tif
-rw-r--r-- 1 rkirian rkirian 227M Feb  1  2018 ../rawdata/microjets/20180201/44_05_01_SC30I/55.tif
-rw-r--r-- 1 rkirian rkirian 227M Dec 21  2017 ../rawdata/microjets/20171221/44_10_03_SC30I/24.tif
-rw-r--r-- 1 rkirian rkirian 227M Dec 21  2017 ../rawdata/microjets/20171221/44_10_03_SC30I/23.tif
-rw-r--r-- 1 rkirian rkirian 227M Dec 21  2017 ../rawdata/microjets/20171221/44_10_03_SC30I/11.tif
-rw-r--r-- 1 rkirian rkirian 227M Dec 21  2017 ../rawdata/microjets/20171221/44_10_03_SC30I/10.tif
-rw-r--r-- 1 rkirian rkirian 227M Dec 21  2017 ../rawdata/microjets/20171221/44_10_03_SC30I/04.tif
-rw-r--r-- 1 rkirian rkirian 227M Dec 21  2017 ../rawdata/microjets/20171221/44_10_03_SC30I/03.tif
-rw-r--r-- 1 rkirian rkirian 227M Dec 21  2017 ../rawdata/microjets/20171221/44_10_03_SC30I/02.tif
-rw-r--r-- 1 rkirian rkirian 227M Dec 21  2017 ../rawdata/microjets/20171221/44_10_03_SC30I/01.tif
-rw-r--r-- 1 rkirian rkirian 227M Aug 29  2017 ../rawdata/microjets/2017/20170829/44_05_01_SC30I/054.tif
-rw-r--r-- 1 rkirian rkirian 227M Aug 29  2017 ../rawdata/microjets/2017/20170829/44_05_01_SC30I/053.tif
-rw-r--r-- 1 rkirian rkirian 227M Aug 29  2017 ../rawdata/microjets/2017/20170829/44_05_01_SC30I/050.tif
-rw-r--r-- 1 rkirian rkirian 227M Aug 29  2017 ../rawdata/microjets/2017/20170829/44_05_01_SC30I/048.tif
-rw-r--r-- 1 rkirian rkirian 227M Aug 29  2017 ../rawdata/microjets/2017/20170829/44_05_01_SC30I/047.tif
-rw-r--r-- 1 rkirian rkirian 227M Aug 29  2017 ../rawdata/microjets/2017/20170829/44_05_01_SC30I/045.tif
-rw-r--r-- 1 rkirian rkirian 227M Aug 29  2017 ../rawdata/microjets/2017/20170829/44_05_01_SC30I/044.tif
-rw-r--r-- 1 rkirian rkirian 227M Aug 29  2017 ../rawdata/microjets/2017/20170829/44_05_01_SC30I/043.tif
-rw-r--r-- 1 rkirian rkirian 227M Aug 29  2017 ../rawdata/microjets/2017/20170829/44_05_01_SC30I/042.tif
-rw-r--r-- 1 rkirian rkirian 227M Aug 29  2017 ../rawdata/microjets/2017/20170829/44_05_01_SC30I/041.tif
-rw-r--r-- 1 rkirian rkirian 227M Aug 29  2017 ../rawdata/microjets/2017/20170829/44_05_01_SC30I/034.tif
-rw-r--r-- 1 rkirian rkirian 227M Aug 29  2017 ../rawdata/microjets/20170829/44_05_01_SC30I/054.tif
-rw-r--r-- 1 rkirian rkirian 227M Aug 29  2017 ../rawdata/microjets/20170829/44_05_01_SC30I/053.tif
-rw-r--r-- 1 rkirian rkirian 227M Aug 29  2017 ../rawdata/microjets/20170829/44_05_01_SC30I/050.tif
-rw-r--r-- 1 rkirian rkirian 227M Aug 29  2017 ../rawdata/microjets/20170829/44_05_01_SC30I/048.tif
-rw-r--r-- 1 rkirian rkirian 227M Aug 29  2017 ../rawdata/microjets/20170829/44_05_01_SC30I/047.tif
-rw-r--r-- 1 rkirian rkirian 227M Aug 29  2017 ../rawdata/microjets/20170829/44_05_01_SC30I/045.tif
-rw-r--r-- 1 rkirian rkirian 227M Aug 29  2017 ../rawdata/microjets/20170829/44_05_01_SC30I/044.tif
-rw-r--r-- 1 rkirian rkirian 227M Aug 29  2017 ../rawdata/microjets/20170829/44_05_01_SC30I/043.tif
-rw-r--r-- 1 rkirian rkirian 227M Aug 29  2017 ../rawdata/microjets/20170829/44_05_01_SC30I/042.tif
-rw-r--r-- 1 rkirian rkirian 227M Aug 29  2017 ../rawdata/microjets/20170829/44_05_01_SC30I/041.tif
-rw-r--r-- 1 rkirian rkirian 227M Aug 29  2017 ../rawdata/microjets/20170829/44_05_01_SC30I/034.tif
-r--r--r-- 1 rkirian rkirian 227M Jan 17  2018 ../rawdata/microjets/2018/20180117/44_08_02_SC30I/74.tif
-r--r--r-- 1 rkirian rkirian 227M Feb  1  2018 ../rawdata/microjets/2018/20180201/44_05_01_SC30I/55.tif
-rw-r--r-- 1 rkirian rkirian 224M Aug 29  2017 ../rawdata/microjets/2017/20170829/44_05_01_SC30I/037.tif
-rw-r--r-- 1 rkirian rkirian 224M Aug 29  2017 ../rawdata/microjets/20170829/44_05_01_SC30I/037.tif
-rw-r--r-- 1 rkirian rkirian 182M Aug 29  2017 ../rawdata/microjets/2017/20170829/44_05_01_SC30I/040.tif
-rw-r--r-- 1 rkirian rkirian 182M Aug 29  2017 ../rawdata/microjets/20170829/44_05_01_SC30I/040.tif
-rw-r--r-- 1 rkirian rkirian 152M Sep  5  2017 ../rawdata/microjets/2017/20170905/44_07_02_SC30I/014.tif
-rw-r--r-- 1 rkirian rkirian 152M Sep  5  2017 ../rawdata/microjets/2017/20170905/44_07_02_SC30I/007.tif
-rw-r--r-- 1 rkirian rkirian 152M Sep  5  2017 ../rawdata/microjets/2017/20170905/44_07_02_SC30I/006.tif
-rw-r--r-- 1 rkirian rkirian 152M Sep  5  2017 ../rawdata/microjets/2017/20170905/44_07_02_SC30I/005.tif
-rw-r--r-- 1 rkirian rkirian 152M Sep  5  2017 ../rawdata/microjets/2017/20170905/44_07_02_SC30I/004.tif
-rw-r--r-- 1 rkirian rkirian 152M Sep  5  2017 ../rawdata/microjets/2017/20170905/44_07_02_SC30I/003.tif
-rw-r--r-- 1 rkirian rkirian 152M Sep  5  2017 ../rawdata/microjets/2017/20170905/44_07_02_SC30I/002.tif
-rw-r--r-- 1 rkirian rkirian 152M Sep  5  2017 ../rawdata/microjets/2017/20170905/44_07_02_SC30I/001.tif
-rw-r--r-- 1 rkirian rkirian 152M Sep  5  2017 ../rawdata/microjets/20170905/44_07_02_SC30I/014.tif
-rw-r--r-- 1 rkirian rkirian 152M Sep  5  2017 ../rawdata/microjets/20170905/44_07_02_SC30I/007.tif
-rw-r--r-- 1 rkirian rkirian 152M Sep  5  2017 ../rawdata/microjets/20170905/44_07_02_SC30I/006.tif
-rw-r--r-- 1 rkirian rkirian 152M Sep  5  2017 ../rawdata/microjets/20170905/44_07_02_SC30I/005.tif
-rw-r--r-- 1 rkirian rkirian 152M Sep  5  2017 ../rawdata/microjets/20170905/44_07_02_SC30I/004.tif
-rw-r--r-- 1 rkirian rkirian 152M Sep  5  2017 ../rawdata/microjets/20170905/44_07_02_SC30I/003.tif
-rw-r--r-- 1 rkirian rkirian 152M Sep  5  2017 ../rawdata/microjets/20170905/44_07_02_SC30I/002.tif
-rw-r--r-- 1 rkirian rkirian 152M Sep  5  2017 ../rawdata/microjets/20170905/44_07_02_SC30I/001.tif
-rw-r--r-- 1 rkirian rkirian 152M Aug 31  2017 ../rawdata/microjets/2017/20170831/44_07_01_SC30I/001.tif
-rw-r--r-- 1 rkirian rkirian 152M Aug 31  2017 ../rawdata/microjets/20170831/44_07_01_SC30I/001.tif
-rw-r--r-- 1 rkirian rkirian 152M Aug 29  2017 ../rawdata/microjets/2017/20170829/44_05_01_SC30I/052.tif
-rw-r--r-- 1 rkirian rkirian 152M Aug 29  2017 ../rawdata/microjets/2017/20170829/44_05_01_SC30I/049.tif
-rw-r--r-- 1 rkirian rkirian 152M Aug 29  2017 ../rawdata/microjets/2017/20170829/44_05_01_SC30I/039.tif
-rw-r--r-- 1 rkirian rkirian 152M Aug 29  2017 ../rawdata/microjets/20170829/44_05_01_SC30I/052.tif
-rw-r--r-- 1 rkirian rkirian 152M Aug 29  2017 ../rawdata/microjets/20170829/44_05_01_SC30I/049.tif
-rw-r--r-- 1 rkirian rkirian 152M Aug 29  2017 ../rawdata/microjets/20170829/44_05_01_SC30I/039.tif
-rw-r--r-- 1 rkirian rkirian 140M Jul  3  2018 ../rawdata/microjets/20180703/44_08_02_SC30I/88.tif
-r--r--r-- 1 rkirian rkirian 140M Jul  3  2018 ../rawdata/microjets/2018/20180703/44_08_02_SC30I/88.tif
-rw-r--r-- 1 rkirian rkirian 95M Aug 29  2017 ../rawdata/microjets/2017/20170829/44_05_01_SC30I/024.tif
-rw-r--r-- 1 rkirian rkirian 95M Aug 29  2017 ../rawdata/microjets/20170829/44_05_01_SC30I/024.tif
-rw-r--r-- 1 rkirian rkirian 94M Aug 29  2017 ../rawdata/microjets/2017/20170829/44_05_01_SC30I/018.tif
-rw-r--r-- 1 rkirian rkirian 94M Aug 29  2017 ../rawdata/microjets/20170829/44_05_01_SC30I/018.tif
-rw-r--r-- 1 rkirian rkirian 87M Aug 29  2017 ../rawdata/microjets/2017/20170829/44_05_01_SC30I/025.tif
-rw-r--r-- 1 rkirian rkirian 87M Aug 29  2017 ../rawdata/microjets/20170829/44_05_01_SC30I/025.tif
-rw-r--r-- 1 rkirian rkirian 86M Aug 29  2017 ../rawdata/microjets/2017/20170829/44_05_01_SC30I/026.tif
-rw-r--r-- 1 rkirian rkirian 86M Aug 29  2017 ../rawdata/microjets/20170829/44_05_01_SC30I/026.tif
-rw-r--r-- 1 rkirian rkirian 83M Aug 29  2017 ../rawdata/microjets/2017/20170829/44_05_01_SC30I/019.tif
-rw-r--r-- 1 rkirian rkirian 83M Aug 29  2017 ../rawdata/microjets/20170829/44_05_01_SC30I/019.tif
-rw-r--r-- 1 rkirian rkirian 78M Aug 29  2017 ../rawdata/microjets/2017/20170829/44_05_01_SC30I/031.tif
-rw-r--r-- 1 rkirian rkirian 78M Aug 29  2017 ../rawdata/microjets/2017/20170829/44_05_01_SC30I/030.tif
-rw-r--r-- 1 rkirian rkirian 78M Aug 29  2017 ../rawdata/microjets/2017/20170829/44_05_01_SC30I/028.tif
-rw-r--r-- 1 rkirian rkirian 78M Aug 29  2017 ../rawdata/microjets/20170829/44_05_01_SC30I/031.tif
-rw-r--r-- 1 rkirian rkirian 78M Aug 29  2017 ../rawdata/microjets/20170829/44_05_01_SC30I/030.tif
-rw-r--r-- 1 rkirian rkirian 78M Aug 29  2017 ../rawdata/microjets/20170829/44_05_01_SC30I/028.tif
-rw-r--r-- 1 rkirian rkirian 77M Sep  1  2017 ../rawdata/microjets/2017/20170901/44_07_01_SC30I/002.tif
-rw-r--r-- 1 rkirian rkirian 77M Sep  1  2017 ../rawdata/microjets/20170901/44_07_01_SC30I/002.tif
-rw-r--r-- 1 rkirian rkirian 77M Aug 29  2017 ../rawdata/microjets/2017/20170829/44_05_01_SC30I/027.tif
-rw-r--r-- 1 rkirian rkirian 77M Aug 29  2017 ../rawdata/microjets/20170829/44_05_01_SC30I/027.tif
-rw-r--r-- 1 rkirian rkirian 72M Aug 29  2017 ../rawdata/microjets/2017/20170829/44_05_01_SC30I/032.tif
-rw-r--r-- 1 rkirian rkirian 72M Aug 29  2017 ../rawdata/microjets/20170829/44_05_01_SC30I/032.tif
-rw-r--r-- 1 rkirian rkirian 66M Aug 29  2017 ../rawdata/microjets/2017/20170829/44_05_01_SC30I/029.tif
-rw-r--r-- 1 rkirian rkirian 66M Aug 29  2017 ../rawdata/microjets/20170829/44_05_01_SC30I/029.tif
-rw-r--r-- 1 rkirian rkirian 56M Aug 29  2017 ../rawdata/microjets/2017/20170829/44_05_01_SC30I/033.tif
-rw-r--r-- 1 rkirian rkirian 56M Aug 29  2017 ../rawdata/microjets/20170829/44_05_01_SC30I/033.tif
-rw-r--r-- 1 rkirian rkirian 52M Aug 29  2017 ../rawdata/microjets/2017/20170829/44_05_01_SC30I/036.tif
-rw-r--r-- 1 rkirian rkirian 52M Aug 29  2017 ../rawdata/microjets/2017/20170829/44_05_01_SC30I/035.tif
-rw-r--r-- 1 rkirian rkirian 52M Aug 29  2017 ../rawdata/microjets/20170829/44_05_01_SC30I/036.tif
-rw-r--r-- 1 rkirian rkirian 52M Aug 29  2017 ../rawdata/microjets/20170829/44_05_01_SC30I/035.tif
